"ನೆಟ್ವರ್ಕ್ ಸೆಕ್ಯೂರಿಟಿ ಅಂಡ್ ಸೈಬರ್ ಲಾ (Network Security and Cyber Law)";;;;;
;;;;;
"Contributor - ಪ್ರಬೋಧ ಸಿ ಪಿ (Prabodh C P) prabodh@sit.ac.in";;;;;
;;;;;
"ಕ್ರ.ಸಂ";"ಇಂಗ್ಲೀಷ ಪದ";"ಉಚ್ಚಾರಣೆ";"ಕನ್ನಡದಲ್ಲಿ ಸಮಾನ ಪದ";"ಇಂಗ್ಗ್ಲೀಷನಲ್ಲಿ ಪದದ ವಿವರಣೆ";"ಕನ್ನಡದಲ್ಲಿ ಪದದ ವಿವರಣೆ"
1;"Network Security";"ನೆಟ್ವರ್ಕ್ ಸೆಕ್ಯುರಿಟಿ";"ಜಾಲಬಂಧ ಭದ್ರತೆ";"Network security consists of the policies, processes and practices adopted to prevent, detect and monitor unauthorized access, misuse, modification, or denial of a computer network and network-accessible resources.";"ಗಣಕ ಜಾಲಬಂಧ ಮತ್ತು ಅದರ ಸಂಪನ್ಮೂಲಗಳು ಹಾಗು ಸೇವೆಗಳ ದುರ್ಬಳಕೆ, ಅನಧಿಕೃತ ಬಳಕೆ, ಬದಲಾವಣೆ ಅಥವಾ ನಿರಾಕರಣೆಯನ್ನು ಪತ್ತೆ ಹಚ್ಚಲು, ತಡೆಯಲು ಹಾಗು ನಿಗಾ ವಹಿಸಲು ಬೇಕಾದ ನೀತಿಗಳು, ಪ್ರಕ್ರಿಯೆಗಳು ಮತ್ತು ಪದ್ಢತಿಗಳನ್ನು ಒಟ್ಟಾಗಿ ಜಾಲಬಂಧ ಭದ್ರತೆ ಎನ್ನುತ್ತಾರೆ. "
2;"Confidentiality";"ಕನ್ಫಿಡೆನ್ಶಿಯಾಲಿಟಿ";"ಗೌಪ್ಯತೆ";"The protection of data from unauthorized disclosure.";"ದತ್ತಾಂಶದ ಅನಧಿಕೃತ ಬಳಕೆಯ ವಿರುದ್ಧದ ಭದ್ರತೆ. "
3;"Integrity";"ಇಂಟಿಗ್ರಿಟಿ";"ಸಮಗ್ರತೆ";"The assurance that data received are exactly as sent by an authorized entity";"ಸ್ವೀಕರಿಸಲಾದ ದತ್ತಾಂಶವು ಅಧಿಕೃತ ರವಾನೆದಾರ ಕಳುಹಿಸಿದ ದತ್ತಾಂಶವನ್ನು ನಿಖರವಾಗಿ ಹೊಲುತ್ತದೆ ಎಂಬ ಭರವಸೆ"
4;"Availability";"ಅವೈಲೆಬಿಲಿಟಿ";"ಲಭ್ಯತೆ";"property of a system or a system resource being accessible and usable upon demand by an authorized system entity";"ಒಂದು ವ್ಯವಸ್ಥೆ ಅಥವಾ ವ್ಯವಸ್ಥೆಯ ಸಂಪನ್ಮೂಲವು ಅಧಿಕೃತ ವಸ್ತುವಿನಿಂದ ಬೇಡಿಕೆ ಬಂದಾಗ ಲಭ್ಯವಿರುವ ಗುಣ"
5;"Authentication";"ಅಥೆಂಟಿಕೆಶನ್";"ಧೃಡೀಕರಣ";"The assurance that the communicating entity is the one that it claims to be";"ಸಂಪರ್ಕದಲ್ಲಿ ಇರುವ ವ್ಯಕ್ತಿ/ ವಸ್ತು ತಾನು ಯಾರೆಂದು ನಿರೂಪಿಸುತ್ತ್ತಿದೆಯೊ, ಅವನೆ/ಅದೆ ಎಂಬ ಭರವಸೆ"
6;"Network";"ನೆಟ್ವರ್ಕ್ ";"ಜಾಲಬಂಧ";"a set of devices interconnected through links";"ಕೊಂಡಿಗಳಿಂದ ಒಂದಕ್ಕೊಂದು ಸಂಪರ್ಕಿಸಲ್ಪಟ್ಟ ಸಾಧನಗಳ ಸಮೂಹ"
7;"Nonrepudiation";"ನಾನ್ರೆಪ್ಯುಡಿಯೆಶನ್";"ನಿರಾಕರಣೆ";"Provides protection against denial by one of the entities involved in a communication of having participated in all or part of the communication.";"ಸಂವಹನದಲ್ಲಿ ಭಾಗಿಯಾಗಿರುವ ಯಾವುದೇ  ವ್ಯಕ್ತಿಯು ತನ್ನ ಭಾಗವಹಿಸುವಿಕೆಯನ್ನು ನಿರಾಕರಿಸುವುದರ ವಿರುದ್ಧ ರಕ್ಷಣೆಯನ್ನು ನೀಡುವುದು "
8;"Cryptography";"ಕ್ರಿಪ್ಟೋಗ್ರಫಿ";"ಗುಪ್ತಲಿಪಿ ಶಾಸ್ತ್ರ";"the study of transforming messages to make them secure and immune to attacks";"ದಾಳಿಗಳಿಂದ ಭದ್ರಪಡಿಸಲು ಹಾಗು ರಕ್ಷಣೆ ಒದಗಿಸಲು ಸಂದೇಶಗಳನ್ನು ರೂಪಾಂತರಗೊಳಿಸುವ ಶಾಸ್ತ್ರ"
9;"Private";"ಪ್ರೈವೇಟ್";"ಖಾಸಗಿ";"intended for or restricted to the use of a particular person, group or entity";"ಕೇವಲ ಓರ್ವ ವ್ಯಕ್ತಿ ಅಥವ ಗುಂಪಿನ ಬಳಕೆಗೆ ಸೀಮಿತವಾದ"
10;"Public";"ಪಬ್ಲಿಕ್";"ಸಾರ್ವಜನಿಕ";"relating to everyone in general";"ಎಲ್ಲರಿಗೂ ಸಂಬಂಧಿಸಿದ"
11;"Cipher";"ಸೈಫರ್";"ಗೂಢಲಿಪಿ";"a method of transforming a text in order to conceal its meaning";"ಪಠ್ಯದ ಅರ್ಥವನ್ನು ಮರೆಮಾಚಲು ಅದನ್ನು ಮರ್ಪಾಟು ಮಾಡುವ ಕ್ರಮ"
12;"Eavesdropping";"ಈವ್ಸ್ ಡ್ರಾಪ್ಪಿಂಗ್";"ಕದ್ದಾಲಿಕೆ";"Eavesdropping is the act of secretly or stealthily listening to the private conversation or communications of others without their consent in order to gather information.";"ಬೇರೆಯವರ ಖಾಸಗಿ ಸಂಭಾಷಣೆ ಅಥವಾ ಸಂವಹನಗಳನ್ನು ಅವರ ಸಹಮತಿ ಇಲ್ಲದೇ ಮಾಹಿತಿ ಸಂಗ್ರಹಿಸುವ ಸಲುವಾಗಿ ಗುಟ್ಟಾಗಿ ಅಥವಾ ಗುಪ್ತವಾಗಿ ಕೇಳುವುದನ್ನು ಕದ್ದಾಲಿಕೆ ಎನ್ನುವರು."
13;"Attacker";"ಅಟ್ಯಾಕರ್";"ದಾಳಿಕೋರ";"an attacker is the individual or organization who performs the malicious activities to destroy, expose, alter, disable, steal or gain unauthorized access to or make unauthorized use of an digital asset.";"ಡಿಜಿಟಲ್ ಸ್ವತ್ತನ್ನು ಕುಕೃತ್ಯಗಳನ್ನು ಮಾಡುವ ಮೂಲಕ ಹಾಳುಗೆಡವಲು, ಬದಲಾಯಿಸಲು, ಕದಿಯಲು ಅಥವಾ ಅನಧಿಕೃತ ಪ್ರವೇಶಪಡೆಯಲು  ಯತ್ನಿಸುವ ಒಬ್ಬ ವ್ಯಕ್ತಿ ಅಥವಾ ಸಂಸ್ಥೆಯನ್ನು ದಾಳಿಕೋರ ಎನ್ನುತ್ತಾರೆ"
14;"Key";"ಕೀ";"ಕೀಲಿ";"key used in secure communication";"ಸುರಕ್ಷಿತ ಸಂವಹನದಲ್ಲಿ ಬಳಸಲಾಗುವ ಕೀಲಿಗಳು"
15;"Access Control";"ಆಕ್ಸೆಸ್ ಕಂಟ್ರೋಲ್";"ಪ್ರವೇಶಾಧಿಕಾರ ನಿಯಂತ್ರಣ";"Access control is a security technique that regulates who or what can view or use resources in a computing environment.";"ಪ್ರವೇಶಾಧಿಕಾರ ನಿಯಂತ್ರಣ ಗಣಕ ವಾತಾವರಣದಲ್ಲಿ ಯಾರು ಯಾವ ಸಂಪನ್ಮೂಲಗಳನ್ನು ವೀಕ್ಷಿಸಬಹುದು ಅಥವಾ ಬಳಸಬಹುದು ಎಂಬುದನ್ನು ನಿಯಂತ್ರಿಸಲು ಬಳಸುವ ಭದ್ರತಾ ವಿಧಾನ "
16;"Cryptanalysis";"ಕ್ರಿಪ್ಟನಾಲಿಸಿಸ್";"ಕ್ರಿಪ್ಟನಾಲಿಸಿಸ್";"the science of analyzing and breaking of codes and ciphers";"ಗೂಢಲಿಪಿ ಹಾಗು ಸಂಕೇತಾಕ್ಷರಗಳನ್ನು ವಿಶ್ಲೇಷಿಸುವ ಮತ್ತು ಭೇಧಿಸುವ ಶಾಸ್ತ್ರ"
17;"Brute-force attack";"ಬ್ರೂಟ್ ಫೋರ್ಸ್ ಅಟ್ಯಾಕ್";"ಮೃಗೀಯ ಶಕ್ತಿ ದಾಳಿ";"In this attack the attacker tries every possible key on a piece of ciphertext until an intelligible translation into plaintext is obtained";"ಈ ದಾಳಿಯಲ್ಲಿ ದಾಳಿಕೋರನು ಗುಪ್ತಲಿಪಿಯ ಅರ್ಥಬದ್ಧ ಭಾಷಾಂತರ ಲಭಿಸುವವರೆಗೆ ಸಾಧ್ಯವಿರುವ ಎಲ್ಲ ಕೀಲಿಗಳನ್ನು ಬಳಸುತ್ತಾನೆ"
18;"Advanced Encryption Standard (AES)";"ಅಡ್ವಾನ್ಸ್ಡ್ ಎಂಕ್ರಿಪ್ಶನ್ ಸ್ಟಾಂಡರ್ಡ್ (ಎಇಎಸ್)";"ಅಡ್ವಾನ್ಸ್ಡ್ ಎಂಕ್ರಿಪ್ಶನ್ ಸ್ಟಾಂಡರ್ಡ್ (ಎಇಎಸ್)";"A cryptographic algorithm that can be used to protect electronic data. The AES algorithm is a symmetric block cipher that can encrypt and decrypt information.";"ವಿದ್ಯುನ್ಮಾನ ದತ್ತಾಂಶವನ್ನು ಭದ್ರಪಡಿಸಲು ಬಳಸುವ ಗೂಢಲಿಪೀಕರಣ ಅಲ್ಗೊರಿಥಮ್. ಇದು ಸಮಾನ ಘಟಕ ಗೂಢಲಿಪೀಕರಣ ಸೈಫರ್ ಆಗಿದ್ದು ಮಾಹಿತಿಯನ್ನು ಗೂಢಲಿಪೀಕರಿಸಲು ಮತ್ತು ಡಿಕ್ರಿಪ್ಟ್ ಮಾಡಲು ಬಳಸಲಾಗುತ್ತದೆ."
19;"Masquerade";"ಮಾಸ್ಕ್ವೆರೇಡ್";"ಸೋಗುಹಾಕು";"pretend to be someone else";"ಬೇರೊಬ್ಬನಂತೆ ಸೋಗುಹಾಕು ಅಥವಾ ನಟಿಸು"
20;"Denial of Service";"ಡೆನಿಯಲ್ ಆಫ್ ಸರ್ವೀಸ್";"ಸೇವಾ ನಿರಾಕರಣೆ";"prevents or inhibits the normal use or management of communications facilities";"ಸಂವಹನ ಸೇವೆಗಳ ಬಳಕೆ ಮತ್ತು ನಿರ್ವಹಣೆಯನ್ನು ತಡೆಯುವಿಕೆ ಅಥವಾ ನಿರ್ಭಂದಿಸುವಿಕೆ"
21;"Digital Signature";"ಡಿಜಿಟಲ್ ಸಿಗ್ನೆಚರ್";"ಡಿಜಿಟಲ್ ಸಹಿ";"Data appended to, or a cryptographic transformation of, a data unit that allows a recipient of the data unit to prove the source and integrity of the data unit and protect against forgery";"ದತ್ತಾಂಶ ಘಟಕಕ್ಕೆ ಕೊನೆಯಲ್ಲಿ ಸೇರಿಸಲಾದ ದತ್ತಾಂಶ ಅಥವಾ ಗುಪ್ತಲಿಪಿ ರೂಪಾಂತರಣವನ್ನು ಬಳಸಿ ದತ್ತಾಂಶ ಸ್ವೀಕರಿಸಿದವನು ದತ್ತಾಂಶದ ಮೂಲ ಮತ್ತು ಸಮಗ್ರತೆಯನ್ನು ಧೃಢೀಕರಿಸಬಹುದು ಮತ್ತು ನಕಲಿ ಸಹಿಯ ವಿರುದ್ಧ ರಕ್ಷಣೆಯನ್ನು ನೀಡುತ್ತದೆ"
22;"Security Audit";"ಸೆಕ್ಯುರಿಟಿ ಆಡಿಟ್";"ಭದ್ರತಾ ಲೆಕ್ಕಪರಿಶೋಧನೆ";"review and examination of system records and activities";"ವ್ಯವಸ್ಥೆಯ ದಾಖಲೆ ಮತ್ತು ಚಟುವಟಿಕೆಗಳ ಪುನರ್ವಿಮರ್ಶೆ ಮತ್ತು ತಪಾಸಣೆ"
23;"Algorithm";"ಅಲ್ಗೊರಿತಂ";"ಕ್ರಮಾವಳಿ / ಗಣನ ಪದ್ಧತಿ";"a set of ordered instructions to solve a problem";" ಒಂದು ಸಮಸ್ಯೆಯ ಪರಿಹಾರಕ್ಕಾಗಿ ರೂಪಿಸುವ ನಿರ್ದಿಷ್ಟ ಆದೇಶಗಳ ಕ್ರಮಬದ್ಧ ಸಮೂಹ"
24;"Traffic Analysis";"ಟ್ರಾಫಿಕ್ ಅನಾಲಿಸಿಸ್";"ಟ್ರಾಫಿಕ್ ವಿಶ್ಲೇಷಣೆ";"the process of intercepting and examining messages in order to deduce information from patterns in communication";"ಸಂವಹನದಲ್ಲಿನ ಒಳಸ್ವರೂಪಗಳನ್ನು ಬಳಸಿ ಮಾಹಿತಿಯನ್ನು ಪಡೆಯುವ ಸಲುವಾಗಿ ಸಂದೇಶಗಳನ್ನು ತಡೆಹಿಡಿದು ಪರಿಶೀಲಿಸುವ ಕ್ರಿಯೆ "
25;"Plaintext";"ಪ್ಲೈನ್ ಟೆಕ್ಸ್ಟ್";"ಸಾದಾ ಪಠ್ಯ";"intelligible text";"ಅರ್ಥವಾಗುವ ಪಠ್ಯ"
26;"Ciphertext";"ಸೈಫರ್ ಟೆಕ್ಸ್ಟ್";"ಗುಪ್ತ ಪಠ್ಯ";"encrypted text that is not readily intelligible";"ಒಮ್ಮೆಲೆ ಅರ್ಥವಾಗದ ಗೂಢಲಿಪೀಕರಿಸಿದ ಪಠ್ಯ "
27;"Encryption";"ಎಂಕ್ರಿಪ್ಷನ್";"ಎಂಕ್ರಿಪ್ಷನ್";"process of transforming plaintext to ciphertext";"ಸಾದಾ ಪಠ್ಯವನ್ನು ಗುಪ್ತ ಪಠ್ಯವನ್ನಾಗಿ ಮಾರ್ಪಡಿಸುವ ಕ್ರಿಯೆ"
28;"Decryption";"ಡಿಕ್ರಿಪ್ಷನ್";"ಡಿಕ್ರಿಪ್ಷನ್";"process of transforming ciphertext back to plaintext";"ಗುಪ್ತ ಪಠ್ಯವನ್ನು ಪುನಃ ಸಾದಾ ಪಠ್ಯವನ್ನಾಗಿ ಮರುಮಾರ್ಪಾಡಿಸುವ ಕ್ರಿಯೆ"
29;"Substitution Cipher";"ಸಬ್ಸ್ಟಿಟ್ಯುಶನ್ ಸೈಫರ್";"ಬದಲಿ ಗೂಢಲಿಪಿ";"A substitution cipher is one in which the letters of plaintext are replaced by other letters or by numbers or symbols.";"ಬದಲಿ ಗೂಢಲಿಪಿಯಲ್ಲಿ ಸಾದಾ ಪಠ್ಯದಲ್ಲಿರುವ ಅಕ್ಷರಗಳ ಬದಲಾಗಿ  ಬೇರೊಂದು ಅಕ್ಷರ ಅಥವಾ ಚಿಹ್ನೆಗೆ ಬದಲಾಯಿಸಲಾಗುತ್ತದೆ"
30;"Transposition Cipher";"ಟ್ರಾನ್ಸ್ಪೊಸಿಶನ್ ಸೈಫರ್";"ವರ್ಗಾವಣೆ ಗೂಢಲಿಪಿ";"A transposition cipher is obtained by permuting the letters in plaintext";"ವರ್ಗಾವಣೆ ಗೂಢಲಿಪಿಯನ್ನು ಸಾದಾ ಪಠ್ಯದ ಅಕ್ಷರಗಳ ಸ್ಥಳ ಬದಲಾವಣೆ ಮಾಡುವ ಮೂಲಕ ಪಡೆಯಲಾಗುತ್ತದೆ"
31;"Symmetric Encryption";"ಸಿಮೆಟ್ರಿಕ್ ಎಂಕ್ರಿಪ್ಷನ್";"ಸಮಾನ ಗೂಢಲಿಪೀಕರಣ";"Symmetric encryption is a form of cryptosystem in which encryption and decryption are performed using the same key";"ಸಮಾನ ಗೂಢಲಿಪೀಕರಣದಲ್ಲಿ ಎಂಕ್ರಿಪ್ಷನ್ ಹಾಗು ಡಿಕ್ರಿಪ್ಷನ್ ಮಾಡಲು ಒಂದೇ ಕೀಲಿಯನ್ನು ಬಳಸಲಾಗುತ್ತದೆ"
32;"Asymmetric Encryption";"ಅಸಿಮೆಟ್ರಿಕ್ ಎಂಕ್ರಿಪ್ಷನ್";"ಅಸಮಾನ ಗೂಢಲಿಪೀಕರಣ";"Asymmetric encryption is a form of cryptosystem in which encryption and decryption are performed using different keys";"ಅಸಮಾನ ಗೂಢಲಿಪೀಕರಣದಲ್ಲಿ ಎಂಕ್ರಿಪ್ಷನ್ ಹಾಗು ಡಿಕ್ರಿಪ್ಷನ್ ಮಾಡಲು ಬೇರೆ ಬೇರೆ ಕೀಲಿಗಳನ್ನು ಬಳಸಲಾಗುತ್ತದೆ"
33;"Steganography";"ಸ್ಟೆಗಾನೋಗ್ರಫಿ";"ಸ್ಟೆಗಾನೋಗ್ರಫಿ";"the process of concealing messages or information within other non-secret text";"ರಹಸ್ಯವಲ್ಲದ ಪಠ್ಯದೊಳಗೆ ಸಂದೇಶ ಅಥವಾ ಮಾಹಿತಿಯನ್ನು ಬಚ್ಚಿಡುವ ಕ್ರಿಯೆ"
34;"Block Cipher";"ಬ್ಲಾಕ್ ಸೈಫರ್";"ಘಟಕ ಗೂಢಲಿಪಿ";"A block cipher is one in which a block of plaintext is used to produce a ciphertext block of equal length.";"ಒಂದು ಇಡೀ ಸದಾ ಪಠ್ಯದ ಘಟಕವನ್ನು ಬಳಸಿ ಅಷ್ಟೇ ಉದ್ದದ ಗುಪ್ತಪಠ್ಯ ಘಟಕವನ್ನು ಉತ್ಪಾದಿಸುವ ಗೂಢಲಿಪಿ ವ್ಯವಸ್ಥೆ"
35;"Stream Cipher";"ಸ್ಟ್ರೀಮ್ ಸೈಫರ್";"ನಿರಂತರ ಗೂಢಲಿಪಿ";"stream cipher is one that encrypts a digital data stream one bit or one byte at a time.";"ಡಿಜಿಟಲ್ ದತ್ತಾಂಶವನ್ನು ನಿರಂತರವಾಗಿ ಒಂದು ಬಾರಿಗೆ ಒಂದೊಂದೇ ಬಿಟ್ಟು ಅಥವಾ ಬೈಟನ್ನು ಗೂಢಲಿಪೀಕರಿಸುವ ಗೂಢಲಿಪಿ ವ್ಯವಸ್ಥೆ"
36;"Initial Permutation";"ಇನಿಶಿಯಲ್ ಪರ್ಮುಟೇಶನ್";"ಮೊದಲ ಪರಿವೃತ್ತಿ";"the first transposition of letters in encryption";"ಗೂಢಲಿಪೀಕರಣದಲ್ಲಿ ಮಾಡಾಲಾಗುವ ಅಕ್ಷರಗಳ ಮೊದಲ ಸ್ಥಳ ಪಲ್ಲಟನೆ"
37;"Key Generation";"ಕೀ ಜನರೇಶನ್";"ಕೀಲಿ ಉತ್ಪಾದನೆ";"the process of generating the key required for encryption";"ಗೂಢಲಿಪೀಕರಣಕ್ಕೆ ಬೇಕಾದ ಕೀಲಿಯನ್ನು ಉತ್ಪಾದಿಸುವ ಕ್ರಿಯೆ"
38;"Avalanche Effect";"ಅವಲಾಂಚೆ ಎಫೆಕ್ಟ್";"ಹಿಮಪಾತ ಪರಿಣಾಮ";"a small change in either the plaintext or the key should produce a significant change in the ciphertext.";"ಸಾದಾ ಪಠ್ಯದಲ್ಲಿನ ಅಥವಾ ಕೀಲಿಯಲ್ಲಿನ ಒಂದು ಸಣ್ಣ ಬದಲಾವಣೆ ಗುಪ್ತ ಪಠ್ಯದಲ್ಲಿ ಗಮನಾರ್ಹ ಬದಲಾವಣೆಗೆ ಕಾರಣವಾಗುತ್ತದೆ"
39;"Probability";"ಪ್ರಾಬೆಬಿಲಿಟಿ";"ಸಂಭವನೀಯತೆ";"the likelihood of something happening.";"ಎನಾದರೊಂದು ಆಗುವ ಸಾಧ್ಯತೆಯ ಮಟ್ಟ"
40;"Random";"ರ‍್ಯಾಂಡಮ್";"ಯಾದೃಚ್ಛಿಕ";"governed by or depending on chance";"ಸಂಭವನೀಯತೆಯ ಮೇಲೆ ಆಧರಿಸಲ್ಪಟ್ಟದ್ದು"
41;"Electronic Codebook (ECB)";"ಎಲೆಕ್ಟ್ರಾನಿಕ್ ಕೋಡ್ ಬುಕ್ (ಇಸಿಬಿ)";"ಎಲೆಕ್ಟ್ರಾನಿಕ್ ಕೋಡ್ ಬುಕ್ (ಇಸಿಬಿ)";"Each block of 64 plaintext bits is encoded independently using the same key.";"ಪ್ರತಿ ೬೪ ಬಿಟ್ಟುಗಳ ಸಾದಾ ಪಠ್ಯ ಘಟಕವನ್ನು ಒಂದೇ ಕೀಲಿಯನ್ನು ಬಳಸಿ ಸ್ವತಂತ್ರವಾಗಿ ಗೂಢಲಿಪಿಕರಿಸಲಾಗುತ್ತದೆ."
42;"Cipher Block Chaining (CBC)";"ಸೈಫರ್ ಬ್ಲಾಕ್ ಚೈನಿಂಗ್ (ಸಿಬಿಸಿ)";"ಸೈಫರ್ ಬ್ಲಾಕ್ ಚೈನಿಂಗ್ (ಸಿಬಿಸಿ)";"The input to the encryption algorithm is the XOR of the next 64 bits of plaintext and the preceding 64 bits of ciphertext.";"ಈ ಗೂಢಲಿಪಿ ಅಲ್ಗೊರಿಥಮ್ ಸಾದಾಪಠ್ಯದ ಮುಂದಿನ ೬೪ ಬಿಟ್ಟುಗಳು ಮತ್ತು ಗುಪ್ತ ಪಠ್ಯದ ಹಿಂದಿನ ೬೪ ಬಿಟ್ಟುಗಳನ್ನು ಇನ್ಪುಟ್ಟಾಗಿ ಬಳಸುತ್ತದೆ."
43;"Cipher Feedback (CFB)";"ಸೈಫರ್ ಫೀಡ್ಬ್ಯಾಕ್ (ಸಿಎಫ಼್‌ಬಿ)";"ಸೈಫರ್ ಫೀಡ್ಬ್ಯಾಕ್ (ಸಿಎಫ಼್‌ಬಿ)";"Input is processed s bits at a time. Preceding ciphertext is used as input to the encryption algorithm to produce pseudorandom output, which is XORed with plaintext to produce next unit of ciphertext.";"ಒಂದು ಬಾರಿಗೆ ಇನ್ಪುಟ್ಟಿನ ಎಸ್ ಬಿಟ್ಟುಗಳನ್ನು ಸಂಸ್ಕರಿಸಲಾಗುತ್ತದೆ. ಹಿಂದಿನ ಗುಪ್ತ ಪಠ್ಯವನ್ನು ಗೂಢಲಿಪೀಕರಣ ಅಲ್ಗೊರಿಥಮ್ಮಿಗೆ ಇನ್ಪುಟ್ ಆಗಿ ಬಳಸಿಕೊಂಡು ಸೂಡೊರ‍್ಯಾಂಡಮ್ ಔಟ್ಪುಟ್ ಉತ್ಪಾದಿಸಿ, ನಂತರ ಸಾದಾ ಪಠ್ಯದೊಂದಿಗೆ ಎಕ್ಸಾರ್ ಮಾಡುವುದರ ಮೂಲಕ ಮುಂದಿನ ಗುಪ್ತ ಪಠ್ಯ ಘಟಕವನ್ನು ಉತ್ಪಾದಿಸಲಾಗುತ್ತದೆ."
44;"Output Feedback (OFB)";"ಔಟ್ಪುಟ್ ಫೀಡ್ಬ್ಯಾಕ್ (ಒಎಫ಼್‌ಬಿ)";"ಔಟ್ಪುಟ್ ಫೀಡ್ಬ್ಯಾಕ್ (ಒಎಫ಼್‌ಬಿ)";"It is similar to CFB, except that the input to the encryption algorithm is the preceding encryption output, and full blocks are used.";"ಇದು ಸೈಫರ್ ಫೀಡ್ಬ್ಯಾಕ್ ತರಹವೇ ಕೆಲಸ ಮಾಡುತ್ತದೆ ಆದರೆ ಹಿಂದಿನ ಸುತ್ತಿನ ಗುಪ್ತ ಪಠ್ಯವನ್ನು ಗೂಢಲಿಪೀಕರಣ ಅಲ್ಗೊರಿಥಮ್ಮಿಗೆ ಇನ್ಪುಟ್ ಆಗಿ ಬಳಸಲಾಗುತ್ತದೆ ಮತ್ತು ಇಲ್ಲಿ ಪೂರ್ಣ ಘಟಕಗಳನ್ನು ಬಳಸಲಾಗುತ್ತದೆ."
45;"Counter (CTR)";"ಕೌಂಟರ್ (ಸಿಟಿಆರ್)";"ಕೌಂಟರ್ (ಸಿಟಿಆರ್)";"Each block of plaintext is XORed with an encrypted counter. The counter is incremented for each subsequent block.";"ಪ್ರತಿ ಸಾದಾ ಪಠ್ಯ ಘಟಕವನ್ನು ಗೂಢಲಿಪೀಕರಿಸಿದ ಕೌಂಟರಿನೊಂದಿಗೆ ಎಕ್ಸಾರ್ ಮಾಡಲಾಗುತ್ತದೆ. ಪ್ರತಿಯೊಂದು ಮುಂದಿನ ಘಟಕಕ್ಕೂ ಕೌಂಟರನ್ನು ಏರಿಕೆ ಮಾಡಲಾಗುತ್ತದೆ."
46;"Nonce";"ನಾನ್ಸ್";"ನಾನ್ಸ್";"A time-varying value that has at most a negligible chance of repeating";"ಕಾಲಕ್ಕೆ ಅನುಗುಣವಾಗಿ ಬದಲಾಗುವ ಮೌಲ್ಯ, ಇದು ಮರುಕಳಿಸುವ ಸಂಭವನೀಯತೆಯು ಬಹಳ ಕಡಿಮೆ"
47;"Triple DES";"ಟ್ರಿಪಲ್ ಡಿ ಇ ಎಸ್";"ತ್ರಿವಳಿ ಡಿ ಇ ಎಸ್";"encrpytion that uses 3 rounds of DES algorithm";"೩ ಸುತ್ತು ಡಿ ಇ ಎಸ್ ಅಲ್ಗೊರಿಥಮ್ ಬಳಸುವ ಗೂಢಲಿಪೀಕರಣ"
48;"Pseudorandom";"ಸೂಡೋರ‍್ಯಾಂಡಮ್";"ಸೂಡೋರ‍್ಯಾಂಡಮ್";"Numbers that are selected by a definite computational process but that satisfy one or more standard tests for statistical randomness";"ನಿಶ್ಚಿತ ಗಣನ ಕ್ರಿಯೆಯಿಂದ ಆಯ್ಕೆ ಮಾಡಲಾದ ಸಂಖ್ಯೆಗಳಾದರೂ ಸಂಖ್ಯಾಶಾಸ್ತ್ರ ಯಾದೃಚ್ಛಿಕತೆಯ ಒಂದು ಅಥವಾ ಹೆಚ್ಚಿನ ಪರೀಕ್ಷೆಗಳನ್ನು ಈಡೇರಿಸುತ್ತವೆ."
49;"Private key";"ಪ್ರೈವೇಟ್ ಕೀ";"ಖಾಸಗಿ ಕೀಲಿ";"it is a key used in asymmetric encryption that is kept secret";"ಅಸಮಾನ ಗೂಢಲಿಪೀಕರಣದಲ್ಲಿ ಬಳಸಲಾಗುವ ಕೀಲಿ, ಇದನ್ನು ಗುಪ್ತವಾಗಿ ಇಡಲಾಗುತ್ತದೆ."
50;"Public key";"ಪಬ್ಲಿಕ್ ಕೀ";"ಸಾರ್ವಜನಿಕ ಕೀಲಿ";"it is a key used in asymmetric encryption that is made available to everyone";"ಅಸಮಾನ ಗೂಢಲಿಪೀಕರಣದಲ್ಲಿ ಬಳಸಲಾಗುವ ಕೀಲಿ, ಇದನ್ನು ಎಲ್ಲರಿಗೂ ಲಭ್ಯವಾಗಿಸಲಾಗುತ್ತದೆ."
51;"Key exchange";"ಕೀ ಎಕ್ಸ್ಚೇಂಜ್";"ಕೀಲಿ ವಿನಿಮಯ";"the process where two parties cooperate to exchange a session key";"ಅವಧಿ ಕೀಲಿಯನ್ನು ಇಬ್ಬರು ಸಹಕಾರಯುತವಾಗಿ ವಿನಿಮಯ ಮಾಡಿಕೊಳ್ಳುವ ಕ್ರಿಯೆ"
52;"One-Way Function";"ಒನ್-ವೇ ಫಂಕ್ಷನ್";"ಒಮ್ಮುಖ ಉತ್ಪನ್ನ";"one-way function is one that maps a domain into a range such that every
function value has a unique inverse, with the condition that the calculation of the
function is easy, whereas the calculation of the inverse is infeasible";"ಒಂದು ಕ್ಷೇತ್ರವನ್ನು ಒಂದು ವ್ಯಾಪ್ತಿಗೆ ಮ್ಯಾಪ್ ಮಾಡುವ ಉತ್ಪನ್ನ, ಇದರ ವಿಶೇಷ ಗುಣ ಎನೆಂದರೆ ಪ್ರತಿಯೊಂದು ಉತ್ಪನ್ನ ಗಣಾಂಶಕ್ಕೂ ವಿಶಿಷ್ಟವಾದ ವಿಲೋಮ ಇರುತ್ತದೆ. ಇಲ್ಲಿ ಉತ್ಪನ್ನ ಗಣಾಂಶವನ್ನು ಗಣಿಸುವುದು ಸುಲಭವಾಗಿರುತ್ತದೆ ಆದರೆ ವಿಲೋಮವನ್ನು ಗಣಿಸುವುದು ಅಶಕ್ಯವಾಗಿರುತ್ತದೆ."
53;"Elliptic Curve";"ಎಲಿಪ್ಟಿಕ್ ಕರ್ವ್";"ದೀರ್ಘವೃತ್ತ ವಕ್ರರೇಖೆ";"elliptic curve is defined by an equation in two variables with coefficients";"ಸಹಪ್ರಮಾಣವುಳ್ಳ ಎರಡು ಚರಾಂಶಗಳ ಸಮೀಕರಣವನ್ನು ಬಳಸಿ ದೀರ್ಘವೃತ್ತ ವಕ್ರರೇಖೆಯನ್ನು ವಿವರಿಸಬಹುದು"
54;"Hash Function";"ಹ್ಯಾಶ್ ಫಂಕ್ಷನ್";"ಹ್ಯಾಶ್ ಉತ್ಪನ್ನ";"A hash function maps a variable-length message into a fixed-length hash value";"ಹ್ಯಾಶ್ ಉತ್ಪನ್ನವು ಒಂದು ಅಸ್ಥಿರ ಅಳತೆಯ ಸಂದೇಶವನ್ನು ಸ್ಥಿರ ಅಳತೆಯ ಹ್ಯಾಶ್ ಅಂಶವನ್ನಾಗಿ ಮ್ಯಾಪ್ ಮಾಡುತ್ತದೆ"
55;"Message Digest";"ಮೆಸೇಜ್ ಡೈಜೆಸ್ಟ್";"ಮೆಸೇಜ್ ಡೈಜೆಸ್ಟ್";"When a hash function is used to provide message authentication, the hash function value is often referred to as a message digest.";"ಯಾವಾಗ ಹ್ಯಾಶ್ ಉತ್ಪನ್ನವನ್ನು ಸಂದೇಶ ಧೃಢೀಕರಣಕ್ಕೆ ಬಳಸಲಾಗುತ್ತದೆಯೋ ಆ ಶ್ ಉತ್ಪನ್ನದಿಂದ ಲಭ್ಯವಾಗುವ ಮೌಲ್ಯವನ್ನು ಮೆಸೇಜ್ ಡೈಜೆಸ್ಟ್ ಎನ್ನುವರು."
56;"Intrusion Detection";"ಇಂಟ್ರೂಶನ್ ಡಿಟೆಕ್ಷನ್";"ನುಸುಳುವಿಕೆ ಪತ್ತೆದಾರಿಕೆ";"process of detecting malicious activity or policy violations in the network.";"ಜಾಲಬಂಧದಲ್ಲಿನ ಕೆಡುಕು ಕೃತ್ಯಗಳನ್ನು ಮತ್ತು ಕಾರ್ಯನೀತಿ ಉಲ್ಲಂಘನೆಯನ್ನು ಪತ್ತೆ ಹಚ್ಚುವ ಕಾರ್ಯ"
57;"Collision";"ಕೊಲಿಶನ್";"ಘರ್ಷಣೆ";"if two different values hash values are the same collision is said to occur";"ಎರಡು ಬೇರೆ ಸಂಖ್ಯೆಗಳ ಹ್ಯಾಶ್ ಮೌಲ್ಯವು ಒಂದೇ ಅಗಿದ್ದರೆ ಅಲ್ಲಿ ಘರ್ಷಣೆ ಆಗಿದೆ ಎನ್ನುತ್ತೇವೆ."
58;"Collision Resistance";"ಕೊಲಿಶನ್ ರೆಸಿಸ್ಟೆನ್ಸ್";"ಘರ್ಷಣೆ ನಿರೋಧಕತೆ";"Property that it is computationally infeasible to find any pair (x, y) such that H(x) = H(y).";"ಯಾವುದೇ ಎರಡು ಜೋಡಿ (x,y) ಅನ್ನು ಅವುಗಳ ಹ್ಯಾಶ್ ಮೌಲ್ಯವು H(x) = H(y) ಇರುವಂತೆ ಕಂಡು ಹಿಡಿಯುವುದು ಅಶಕ್ಯವಾಗಿರುತ್ತದೆ ಎಂಬ ಗುಣ"
59;"Birthday Paradox";"ಬರ್ತಡೆ ಪ್ಯಾರಡಾಕ್ಸ್";"ಹುಟ್ಟುಹಬ್ಬ ವಿರೋಧಾಭಾಸ";"In a set of n randomly chosen people, some pair of them will have the same birthday. ";"ಯಾದೃಚ್ಛಿಕವಾಗಿ ಅಯ್ಕೆ ಮಾಡಿದ ಎನ್ ವ್ಯಕ್ತಿಗಳ ಸಮೂಹದಲ್ಲಿ ಯವುದೋ ಒಂದು ಜೋಡಿಯ ಹುಟ್ಟುಹಬ್ಬ ಒಂದೇ ಆಗಿರುತ್ತದೆ"
60;"Meet-in-the-middle-attack";"ಮೀಟ್-ಇನ್-ದ-ಮಿಡಲ್-ಅಟ್ಯಾಕ್";"ಮಧ್ಯದಲ್ಲಿ-ಭೇಟಿ ದಾಳಿ";"The meet-in-the-middle-attack is a generic attack which weakens the security benefits of using multiple encryptions by storing intermediate values from the encryptions or decryptions and using those to improve the time required to brute force the decryption keys.";"ಮಧ್ಯದಲ್ಲಿ-ಭೇಟಿ ದಾಳಿ ಒಂದು ಸಾಮನ್ಯ ದಾಳಿಯಾಗಿದ್ದು, ಇದು ಹಳವು ಸುತ್ತಿನ ಗೂಢಲಿಪಿಕರಣ ವ್ಯವಸ್ಥೆಯ ಭದ್ರತೆಯನ್ನು ದುರ್ಬಲಗೊಳಿಸಲು ಗೂಢಲಿಪಿಕರಣ ಮತ್ತು ಡಿಕ್ರಿಪ್ಶನ್ಗಳ ಮಧ್ಯಂತರ ಮೌಲ್ಯಗಳನ್ನು ಶೇಖರಿಸಿಕೊಂಡು ನಂತರ ಅವುಗಳನ್ನು ಡಿಕ್ರಿಪ್ಶನ್ ಕೀಲಿಗಳನ್ನು ಪಡೆಯಲು ಮಾಡಲಾಗುವ ಮೃಗೀಯ ಶಕ್ತಿ ದಾಳಿಯ ಅವಧಿಯನ್ನು ಕಮ್ಮಿ ಮಾಡಲು ಬಳಸಲಾಗುತ್ತದೆ."
61;"Padding Bits";"ಪ್ಯಾಡಿಂಗ್ ಬಿಟ್ಸ್";"ಪ್ಯಾಡಿಂಗ್ ಬಿಟ್ಟುಗಳು";"adding data to the beginning, middle, or end of a message prior to encryption.";"ಗೂಢಲಿಪೀಕರಣಕ್ಕೆ ಮುನ್ನ ಸಂದೇಶದ ಮೊದಲಿಗೆ, ಮಧ್ಯದಲ್ಲಿ ಅಥವಾ ಕೊನೆಯಲ್ಲಿ ಸೇರಿಸಲಾಗುವ ದತ್ತಾಂಶ "
62;"Checksum";"ಚೆಕ್ಸಮ್";"ತಪಾಸಣಾಮೊತ್ತ";"a small block of data added along with the message for the purpose of error detection.";"ಸಂದೇಶದಲ್ಲಿನ ದೋಷಗಳನ್ನು ಪತ್ತೆಹಚ್ಚಲು ಸಂದೇಶದೊಂದಿಗೆ ಸೇರಿಸಲಾಗುವ ದತ್ತಾಂಶದ ಸಣ್ಣ ತುಣುಕು"
63;"Message Authentication";"ಮೆಸೇಜ್ ಅಥೆಂಟಿಕೇಶನ್";"ಸಂದೇಶ ಧೃಡೀಕರಣ";"Message authentication is a mechanism or service used to verify the integrity of a message.";"ಸಂದೇಶ ಧೃಡೀಕರಣವು ಸಂದೇಶದ ಸಮಗ್ರತೆಯನ್ನು ಧೃಢಪಡಿಸುವ ವಿಧಾನ ಅಥವಾ ಸೇವೆಯಾಗಿರುತ್ತದೆ."
64;"Master Key";"ಮಾಸ್ಟರ್ ಕೀ";"ಮುಖ್ಯ ಕೀಲಿ";"infrequently used and long lasting key";"ಅಪರೂಪವಾಗಿ ಬಳಸುವ ಧೀರ್ಘಕಾಲಿಕ ಕೀಲಿ"
65;"Session Key";"ಸೆಷನ್ ಕೀ";"ಅವಧಿ ಮಟ್ಟದ ಕೀಲಿ";"short term key used only for the duration of a session";"ಕೇವಲ ಒಂದು ಅವಧಿಯ ಮಟ್ಟಿಗೆ ಬಳಸಲಾಗುವ ಅಲ್ಪಕಾಲಿಕ ಕೀಲಿ"
66;"Key Distribution Center";"ಕೀ ಡಿಸ್ಟ್ರಿಬ್ಯೂಶನ್ ಸೆಂಟರ್";"ಕೀಲಿ ಹಂಚಿಕಾ ಕೇಂದ್ರ";"entity responsible for distributing keys to pairs of users";"ಬಳಕೆದಾರ ಜೋಡಿಗಳಿಗೆ ಬೇಕಾದ ಕೀಲಿಗಳನ್ನು ಹಂಚುವ ಜವಾಬ್ದಾರಿಯುಳ್ಳ ಘಟಕ"
67;"Key Management";"ಕೀ ಮ್ಯಾನೇಜ್ಮೆಂಟ್";"ಕೀಲಿ ನಿರ್ವಹಣೆ";"management function responsible for generating and distributing keys required for communication";"ಸಂವಹನಕ್ಕೆ ಬೇಕಾದ ಕೀಲಿಗಳ ಉತ್ಪತ್ತಿ ಮತ್ತು ಹಂಚಿಕೆಯ ಜವಾಬ್ದಾರಿಯುಳ್ಳ ನಿರ್ವಹಣಾ ಘಟಕ"
68;"Man-in-the-middle attack";"ಮ್ಯಾನ್-ಇನ್-ದ-ಮಿಡಲ್-ಅಟ್ಯಾಕ್";"ಮದ್ಯವರ್ಥಿ ದಾಳಿ";"it is a attack where the attacker secretly relays and possibly alters the communications between two parties who believe that they are directly communicating with each other, as the attacker has inserted themselves between the two parties.";"ಈ ದಾಳಿಯಲ್ಲಿ ದಾಳಿಕೋರನು ಸಂವಹನದಲ್ಲಿ ನಿರತರಾಗಿರುವ ಇಬ್ಬರ ನಡುವೆ ಅವರ ಅರಿವಿಲ್ಲದೆಯೆ ರಹಸ್ಯವಾಗಿ ನುಸುಳಿ ಅವರ ಸಂದೇಶಗಳನ್ನು ಕದ್ದಾಲಿಸುವುದು ಅಥವಾ ಬದಲಾಯಿಸುವುದು ಮಾಡುತ್ತಾನೆ."
69;"Public Announcement";"ಪಬ್ಲಿಕ್ ಅನೌನ್ಸಮೆಂಟ್  ";"ಸಾರ್ವಜನಿಕ ಪ್ರಕಟಣೆ";"a process of notifying the public keys of the user to everyone";"ಓರ್ವ್ ಬಳಕೆದಾರನ ಸಾರ್ವಜನಿಕ ಕೀಲಿಯನ್ನು ಎಲ್ಲರಿಗೂ ತಿಳಿಯಪಡಿಸುವ ಕ್ರಿಯೆ"
70;"Publicly Available Directory";"ಪಬ್ಲಿಕ್ಲಿ ಅವೈಲೆಬಲ್ ಡೈರೆಕ್ಟರಿ";"ಸಾರ್ವಜನಿಕವಾಗಿ ಲಭ್ಯವಿರುವ ಕೈಪಿಡಿ";"a publicly available
dynamic directory of public keys maintained by a trusted organization";"ನಂಬಿಕಸ್ಥ ಸಂಸ್ಥೆಯೊಂದು ನೆಡೆಸುವ ಸಾರ್ವಜನಿಕ ಕೀಲಿಗಳ ಸಾರ್ವಜನಿಕವಾಗಿ ಲಭ್ಯವಿರುವ ಸ್ಥಾಯಿಯಲ್ಲದ ಕೈಪಿಡಿ"
71;"Public-Key Authority";"ಪಬ್ಲಿಕ್-ಕೀ-ಅಥಾರಿಟಿ";"ಸಾರ್ವಜನಿಕ ಕೀಲಿ ಪ್ರಾಧಿಕಾರ";"a central authority that maintains a dynamic directory of public keys of all participants";"ಓಂದು ಕೇಂದ್ರೀಕೃತ ಪ್ರಾಧಿಕಾರ ನೆಡೆಸುವ ಸಾರ್ವಜನಿಕ ಕೀಲಿಗಳ ಸಾರ್ವಜನಿಕವಾಗಿ ಲಭ್ಯವಿರುವ ಸ್ಥಾಯಿಯಲ್ಲದ ಕೈಪಿಡಿ"
72;"Public-Key Certificates";"ಪಬ್ಲಿಕ್-ಕೀ-ಸರ್ಟಿಫಿಕೇಟ್ಸ್";"ಸಾರ್ವಜನಿಕ ಕೀಲಿ ಪ್ರಮಾಣಪತ್ರಗಳು";"It is an electronic document used to prove the ownership of a public key.";"ಇದು ಸಾರ್ವಜನಿಕ ಕೀಲಿಯ ಮಾಲೀಕತ್ವವನ್ನು ರುಜುವಾತು ಪಡಿಸುವ ವಿದ್ಯುನ್ಮಾನ ಕಡತ"
73;"Public Key Infrastructure (PKI)";"ಪಬ್ಲಿಕ್ ಕೀ ಇನ್ಫ್ರಾಸ್ಟ್ರಕ್ಚರ್ (ಪಿ ಕೆ ಐ)";"ಸಾರ್ವಜನಿಕ ಕೀಲಿ ಮೂಲಸೌಕರ್ಯ (ಪಿ ಕೆ ಐ)";"A set of policies, processes, server platforms, software and workstations used for the purpose of administering certificates and public-private key pairs, including the ability to issue, maintain, and revoke public key
Certificates.";"ಪ್ರಮಾಣಪತ್ರಗಳು ಮತ್ತು ಸಾರ್ವಜನಿಕ-ಖಾಸಗಿ ಕೀಲಿ ಜೋಡಿಗಳ ವಿತರಣೆ, ನಿರ್ವಹಣೆ ಮತ್ತು ಸಾರ್ವಜನಿಕ ಕೀಲಿ ಪ್ರಮಾಣಪತ್ರ ಹಿಂಪಡೆಯಲು ಬಳಸುವ ಕಾರ್ಯವಿಧಾನಗಳು, ಪ್ರಕ್ರಿಯೆಗಳು, ಸರ್ವರ್ ವೇದಿಕೆಗಳು, ತಂತ್ರಾಶ ಮತ್ತು ಗಣಕಯಂತ್ರಗಳ ಸಮೂಹ"
74;"Validity Period";"ವ್ಯಲಿಡಿಟಿ ಪಿರಿಯಡ್";"ಸಿಂಧುತ್ವ ಅವಧಿ";"period for which a public key certificate is valid";"ಸಾರ್ವಜನಿಕ ಕೀಲಿ ಪ್ರಮಾಣಪತ್ರ ಸಿಂಧುವಾಗಿರುವ ಅವಧಿ"
75;"Certification Authority";"ಸರ್ಟಿಫಿಕೇಶನ್ ಅಥಾರಿಟಿ";"ಪ್ರಮಾಣೀಕರಣ ಪ್ರಾಧಿಕಾರ";"an entity that is capable of issuing public key certificates";"ಸಾರ್ವಜನಿಕ ಕೀಲಿ ಪ್ರಮಾಣಪತ್ರಗಳನ್ನು ವಿತರಿಸುವ ಅರ್ಹತೆಯುಳ್ಳ ಪ್ರಾಧಿಕಾರ"
76;"Forward Certificates";"ಫಾರ್ವರ್ಡ್ ಸರ್ಟಿಫಿಕೇಟ್ಸ್";"ಮುಮ್ಮುಖ ಪ್ರಮಾಣಪತ್ರಗಳು";"Certificates of user generated by other certification authorities";"ಬೇರೊಂದು ಪ್ರಮಾಣೀಕರಣ ಪ್ರಾಧಿಕಾರದಿಂದ ರಚಿಸಲಾಗಿರುವ ಬಳಕೆದಾರನ ಪ್ರಮಾಣಪತ್ರ"
77;"Reverse Certificates";"ರಿವರ್ಸ್ ಸರ್ಟಿಫಿಕೇಟ್ಸ್";"ಹಿಮ್ಮುಖ ಪ್ರಮಾಣಪತ್ರಗಳು";"Certificates generated by user that are the certificates of other certification authorities";"ಬಳಕೆದಾರನಿಂದ ರಚಿಸಲ್ಪಟ್ಟ ಬೇರೊಂದು ಪ್ರಮಾಣೀಕರಣ ಪ್ರಾಧಿಕಾರಗಳ ಪ್ರಮಾಣಪತ್ರ"
78;"Certificate Revocation";"ಸರ್ಟಿಫಿಕೇಟ್ ರಿವೊಕೇಶನ್";"ಪ್ರಮಾಣಪತ್ರ ರದ್ದತಿ";"Certificate revocation is a process in which a certificate is deemed invalid before the end of its lifecycle.";"ಒಂದು ಪ್ರಮಾಣಪತ್ರವನ್ನು ಅದರ ಜೀವಿತಾವಧಿಯ ಮುನ್ನವೇ ಅಸಿಂಧುವೆಂದು ಪರಿಗಣಿಸುವ ಪ್ರಕ್ರಿಯೆಯನ್ನು ಪ್ರಮಾಣಪತ್ರ ರದ್ದತಿ ಎನ್ನುವರು"
79;"Basic Constraints";"ಬೇಸಿಕ್ ಕಂಸ್ಟ್ರೈನ್ಟ್ಸ್ ";"ಪ್ರಮುಖ ನಿರ್ಭಂದಗಳು";"Indicates if the subject may act as a CA.";"ಓರ್ವ ವ್ಯಕ್ತಿಯು ಪ್ರಮಾಣೀಕರಣ ಪ್ರಾಧಿಕಾರವಾಗಿ ಕಾರ್ಯವೆಸಗಬಹುದೇ ಇಲ್ಲವೇ ಎಂದು ತಿಳಿಸುತ್ತದೆ"
80;"Name Constraints";"ನೇಮ್ ಕಂಸ್ಟ್ರೈನ್ಟ್ಸ್ ";"ನಾಮ ನಿರ್ಭಂದಗಳು";"Indicates a name space within which all subject names in subsequent certificates in a certification path must be located.";"ಮುಂದಿನ ಪ್ರಮಾಣಪತ್ರಗಳಲ್ಲಿನ ಎಲ್ಲ ವ್ಯಕ್ತಿಗಳ ಹೆಸರುಗಳು ಪ್ರಮಾಣೀಕರಣ ಪಥದಲ್ಲಿ ಎಲ್ಲಿ ಇರಬೇಕೆಂದು ಸೂಚಿಸುವ ನಾಮ ವಲಯ"
81;"Certificate Revocation List (CRL)";"ಸರ್ಟಿಫಿಕೇಟ್ ರಿವೊಕೇಶನ್ ಲಿಸ್ಟ್ (ಸಿ ಆರ್ ಎಲ್)";"ಪ್ರಮಾಣಪತ್ರ ರದ್ದತಿ ಪಟ್ಟಿಗಳು (ಸಿ ಆರ್ ಎಲ್)";"It is a list of digital certificates that have been revoked by the issuing certificate authority (CA) before their actual or assigned expiration date.";"ಪ್ರಮಾಣೀಕರಣ ಪ್ರಾಧಿಕಾರದಿಂದ ತಮ್ಮ ಜೀವಿತಾವಧಿಯ ಮುನ್ನವೇ ರದ್ದುಗೊಳಿಸಲಾದ ಡಿಜಿಟಲ್ ಪ್ರಮಾಣಪತ್ರಗಳ ಪಟ್ಟಿ"
82;"Registration";"ರೆಜಿಸ್ಟ್ರೇಶನ್";"ನೋಂದಣಿ";"This is the process whereby a user first makes itself known to a CA for the purpose of enrolling in a PKI.";"ಓರ್ವ ಬಳಕೆದಾರನು ಪಿಕೆಐನೊಂದಿಗೆ ನೋಂದಯಿಸಿಕೊಳ್ಳಲು ಮೊದಲಿಗೆ ತನನ್ನು ತಾನು ಸಿಎಗೆ ಪರಿಚಯ ಪಡಿಸಿಕೊಳ್ಳುವ ಪ್ರಕ್ರಿಯೆ."
83;"Initialization";"ಇನಿಶಿಯಲೈಸೇಶನ್";"ಪ್ರಾರಂಭಿಸುವಿಕೆ";"Before the certificate is issued, the client needs to be securely
initialized with the public key and other assured information of the trusted CA";"ಪ್ರಮಾಣಪತ್ರ ನೀಡುವ ಮುನ್ನ ನಂಬಿಕಸ್ಥ ಸಿಎ ತನ್ನ ಸಾರ್ವಜನಿಕ ಕೀಲಿ ಮತ್ತು ಇತರೆ ಭರವಸೆಯ ಮಾಹಿತಿಯನ್ನು ಗ್ರಾಹಕನಿಗೆ ನೀಡಲಾಗುತ್ತದೆ"
84;"Certification";"ಸರ್ಟಿಫಿಕೇಶನ್";"ಪ್ರಮಾಣೀಕರಣ";"This is the process in which a CA issues a certificate for a user’s public key";"ಬಳಕೆದಾರನ ಸಾರ್ವಜನಿಕ ಕೀಲಿಗೆ ಸಿಎ ಪ್ರಮಾಣಪತ್ರ ಕೊಡುವ ಪ್ರಕ್ರಿಯೆ"
85;"Key Pair Recovery";"ಕೀ ಪೇರ್ ರಿಕವರಿ";"ಜೋಡಿ ಕೀಲಿ ಹಿಂಪಡೆತ";"Key pair recovery allows end
entities to restore their encryption/decryption key pair from an authorized key backup facility";"ಜೋಡಿ ಕೀಲಿ ಹಿಂಪಡೆತವನ್ನು ಬಳಸಿ ವ್ಯಕ್ತಿಗಳು ತಮ್ಮ ಎಂಕ್ರಿಪ್ಶನ್/ಡಿಕ್ರಿಪ್ಶನ್ ಜೋಡಿ ಕೀಲಿಯನ್ನು ಅಧಿಕೃತ ಪೂರಕ ಕೀಲಿ ಸೌಲಭ್ಯವನ್ನು ಬಳಸಿ ಹಿಂಪಡೆಯಬಹುದಾಗಿದೆ"
86;"Key Pair Update";"ಕೀ ಪೇರ್ ಅಪ್ಡೇಟ್";"ಜೋಡಿ ಕೀಲಿ ಪರಿಷ್ಕರಣೆ";"A key pair whose certificate is expired or revoked will be replaced with a new key pair";"ಯಾವ ಜೋಡಿ ಕೀಲಿಯ ಪ್ರಮಾಣಪತ್ರದ ಅವಧಿ ಮುಗಿದಿದೆಯೊ ಅಥವಾ ರದ್ದಾಗಿದೆಯೊ ಅದನ್ನು ಹೊಸದೊಂದು ಜೋಡಿ ಕೀಲಿಯಿಂದ ಬದಲಾಯಿಸಲಾಗುತ್ತದೆ"
87;"Revocation Request";"ರಿವೊಕೇಶನ್ ರಿಕ್ವೆಸ್ಟ್";"ರದ್ದತಿ ಕೋರಿಕೆ";"An authorized person advises a CA of an abnormal situation requiring certificate revocation.";"ಓರ್ವ ಅಧಿಕೃತ ವ್ಯಕ್ತಿಯು ಒಂದು ಅಸಹಜ ಪರಿಸ್ಥಿತಿಯಿಂದ ಉಂಟಾದ  ಪ್ರಮಾಣಪತ್ರ ರದ್ದತಿ ಕೋರಿಕೆ ಬಗ್ಗೆ ಸಿಎಗೆ ಸಲಹೆ ನೀಡುತ್ತಾನೆ "
88;"Cross Certification";"ಕ್ರಾಸ್ ಸರ್ಟಿಫಿಕೇಶನ್";"ದ್ವಿಮುಖ ಪ್ರಮಾಣೀಕರಣ";"Here a cross-certificate is a certificate issued by one CA to another CA that contains a CA signature key used for issuing certificates.";"ದ್ವಿಮುಖ ಪ್ರಮಾಣಪತ್ರ ಒಬ್ಬ ಸಿಎ ಮತ್ತೋರ್ವ ಸಿಎಗೆ ಕೊಡುವ ಪ್ರಮಾಣಪತ್ರವಾಗಿದ್ದು, ಇದು ಪ್ರಮಾಣಪತ್ರ ನೀಡುವ ಸಿಎನ ಸಹಿ ಮಾಡುವ ಕೀಲಿಯನ್ನು ಒಳಗೊಂಡಿರುತ್ತದೆ "
89;"Personal Identification Number";"ಪರ್ಸನಲ್ ಐಡೆಂಟಿಫಿಕೇಶನ್ ನಂಬರ್";"ವೈಯುಕ್ತಿಕ ಗುರುತಿನ ಸಂಖ್ಯೆ";"a unique number used for the purpose of identifying an individual";"ಒರ್ವ ವ್ಯಕ್ತಿಯನ್ನು ಗುರುತಿಸುವ ಸಲುವಾಗಿ ಬಳಸಲಾಗುವ ಬಳಸುವ ವಿಶಿಷ್ಟವಾದ ಸಂಖ್ಯೆ"
90;"Timestamps";"ಟೈಂಸ್ಟಾಂಪ್ಸ್";"ಟೈಂಸ್ಟಾಂಪುಗಳು";"a digital record of the time of occurrence of a particular event.";"ಒಂದು ಪ್ರತ್ಯೇಕ ಘಟನೆಯು ಸಂಭವಿಸಿದ ವೇಳೆಯ ಡಿಜಿಟಲ್ ದಾಖಲೆ"
91;"Replay Attack";"ರಿಪ್ಲೇ ಅಟ್ಯಾಕ್";"ಮರುಪ್ರಸರಣ ದಾಳಿ";"it is a form of network attack in which valid data transmission is maliciously or fraudulently repeated or delayed.";"ಈ ಜಾಲಬಂಧ ದಾಳಿಯಲ್ಲಿ ಸರಿಯಾದ ಪ್ರಸಾರಿತ ದತ್ತಾಂಶವನ್ನು ಕೆಡುಕು ಅಥವಾ ವಂಚನೆಯ ಉದ್ದೇಶದಿಂದ ಮರುಪ್ರಸಾರಣ ಮಾಡಲಾಗುತ್ತದೆ ಇಲ್ಲವೇ ವಿಳಂಬ ಮಾಡಲಾಗುತ್ತದೆ."
92;"Authentication Server(AS)";"ಅಥೆಂಟಿಕೆಶನ್ ಸರ್ವರ್ (ಎ ಯಸ್)";"ಧೃಡೀಕರಣ ಸರ್ವರ್ (ಎ ಯಸ್)";"it is a server that knows the passwords of all users and stores these in a centralized database.";"ಇದು ಎಲ್ಲ ಬಳಕೆದಾರರ ಗುಪ್ತಪದವನ್ನು ತಿಳಿದಿರುವ ಸರ್ವರ್ ಮತ್ತು ಅವುಗಳನ್ನು ಒಂದು ಕೇಂದ್ರ ದತ್ತಸಂಚಯದಲ್ಲಿ ಶೇಖರಿಸಿಡುತ್ತದೆ."
93;"Ticket-Granting Server (TGS)";"ಟಿಕೆಟ್-ಗ್ರಾಂಟಿಂಗ್ ಸರ್ವರ್ (ಟಿ ಜಿ ಎಸ್)";"ಟಿಕ್ಕೆಟ್ಟು ನೀಡುವ ಸರ್ವರ್ (ಟಿ ಜಿ ಎಸ್)";"A TGS is part of Kerberos which validates the use of a ticket for a specified purpose, such as network service access.";"ಇದು ಕೆರ್ಬೆರೋಸ್ನ  ಭಾಗವಾಗಿದ್ದು ಒಂದು ಉದ್ದೇಶಿತ ಕಾರ್ಯಕ್ಕೆ ಬಳಸಲಾಗುವ ಗುರುತಿನ ಚೀಟಿಯನ್ನು ಪ್ರಮಾಣೀಕರಿಸುತ್ತದೆ, ಉದಾಹರಣೆಗೆ ಜಾಲಬಂಧ ಸೇವೆ ಪ್ರವೇಶಾಧಿಕಾರ."
94;"Kerberos Realm";"ಕೆರ್ಬೆರೋಸ್ ರೆಲ್ಮ್";"ಕೆರ್ಬೆರೋಸ್ ಪ್ರದೇಶ";"A Kerberos realm is a set of managed nodes that share the same Kerberos database.";"ಒಂದೇ ಕೆರ್ಬೆರೋಸ್ ದತ್ತಸಂಚಯವನ್ನು ಹಂಚಿಕೊಂಡು ಬಳಸುವ ನಿರ್ವಾಹಿತ ಜಾಲಘಟಕಗಳ ಸಮೂಹವನ್ನು ಕೆರ್ಬೆರೋಸ್ ಪ್ರದೇಶ ಎನ್ನುವರು."
95;"Sequence Number";"ಸಿಕ್ವೆನ್ಸ್ ನಂಬರ್";"ಅನುಕ್ರಮ ಸಂಖ್ಯೆ";"a special number to be used by the server for messages sent to the client during mutual authentication to prevent replay attacks";"ಪರಸ್ಪರ ಧೃಢೀಕರಣ ಸಮಯದಲ್ಲಿ ಸರ್ವರ್ ತನ್ನ ಗ್ರಾಹಕನಿಗೆ ಕಳಿಸುವ ಸಂದೇಶಗಳಲ್ಲಿ ಬಳಸುವ ವಿಷೇಶ ಸಂಖ್ಯೆ . ಇದನ್ನು ಮರುಪ್ರಸರಣ ದಾಳಿಯನ್ನು ತಡೆಯುವ ಸಲುವಾಗಿ ಬಳಸಲಾಗುತ್ತದೆ"
96;"Identity Management";"ಐಡೆಂಟಿಟಿ ಮ್ಯಾನೇಜ್ಮೆಂಟ್";"ಗುರುತು ನಿರ್ವಹಣೆ";"Identity management is a centralized, automated approach to provide enterprise 
wide access to resources by employees and other authorized individuals.";"ನೌಕರರು ಮತ್ತು ಅಧಿಕೃತ ವ್ಯಕ್ತಿಗಳಿಗೆ ಉದ್ಯಮವ್ಯಾಪಿ ಸಂಪನ್ಮೂಲಗಳ ಪ್ರವೇಶಾಧಿಕಾರವನ್ನು ನೀಡುವ ಕೇಂದ್ರೀಕೃತ ಸ್ವಯಂಚಾಲಿತ ವ್ಯವಸ್ಥೆಯನ್ನು ಗುರುತು ನಿರ್ವಹಣೆ ಎನ್ನುವರು "
97;"Administrator";"ಅಡ್ಮಿನಿಸ್ಟ್ರೇಟರ್";"ಆಡಳಿತಾಧಿಕಾರಿ";"Person assigned to maintain users, roles, access permissions, and user information.";"ಬಳಕೆದಾರರು, ಅವರ ಪಾತ್ರ ಮತ್ತು ಪ್ರವೇಶಾಧಿಕಾರ ಅನುಮತಿಗಳು ಮತ್ತವರ ಮಾಹಿತಿ ಇವೆಲ್ಲವನ್ನು ನಿರ್ವಹಣೆ ಮಾಡುವ ವ್ಯಕ್ತಿ"
98;"Secure Socket Layer";"ಸೆಕ್ಯೂರ್ ಸಾಕೆಟ್ ಲೇಯರ್";"ಸೆಕ್ಯೂರ್ ಸಾಕೆಟ್ ಲೇಯರ್";"Secure Socket Layer (SSL) provides security services between TCP and applications that use TCP";"ಸೆಕ್ಯೂರ್ ಸಾಕೆಟ್ ಲೇಯರ್ (ಎಸ್ ಎಸ್ ಎಲ್) ಟಿಸಿಪಿ ಮತ್ತು ಟಿಸಿಪಿಯನ್ನು ಬಳಸುವ ಅನ್ವಯಗಳ ನಡುವೆ ಭದ್ರತಾ ಸೇವೆಗಳನ್ನು ನೀಡುತ್ತದೆ"
99;"Transport Layer Security";"ಟ್ರಾನ್ಸ್ಪೋರ್ಟ್ ಲೇಯರ್ ಸೆಕ್ಯುರಿಟಿ";"ಟ್ರಾನ್ಸ್ಪೋರ್ಟ್ ಲೇಯರ್ ಸೆಕ್ಯುರಿಟಿ";"Transport Layer Security (TLS) is the successor of Secure Sockets Layer (SSL). It is a cryptographic protocol designed to provide communications security over a computer network. ";"ಸೆಕ್ಯೂರ್ ಸಾಕೆಟ್ ಲೇಯರ್ (ಎಸ್ ಎಸ್ ಎಲ್) ಇದರ ಉತ್ತರಾಧಿಕಾರಿ ಟ್ರಾನ್ಸ್ಪೋರ್ಟ್ ಲೇಯರ್ ಸೆಕ್ಯುರಿಟಿ ಅಗಿರುತ್ತದೆ. ಇದು ಗೂಢಲಿಪೀಕರಣ ನಿಯಮಾವಳಿಯಾಗಿದ್ದು, ಇದನ್ನು ಜಾಲಬಂಧದಲ್ಲಿ ಸಂವಹನ ಭದ್ರತೆ ಒದಗಿಸಲು ವಿನ್ಯಾಸಗೊಳಿಸಲಾಗಿದೆ."
100;"Web Security";"ವೆಬ್ ಸೆಕ್ಯುರಿಟಿ";"ಜಾಲ ಭದ್ರತೆ";"the protective measures and protocols that organizations adopt to protect the organization from, cyber criminals and threats ";"ಸಂಸ್ಥೆಗಳು ತಮ್ಮನ್ನು ಸೈಬರ್ ಅಪರಾಧಿಗಳು ಮತ್ತು ಅಪಾಯಗಳಿಂದ ತಮ್ಮನ್ನು ರಕ್ಷಿಸಿಕೊಳ್ಳುವ ಸಲುವಾಗಿ ಅನುಸರಿಸುವ ಭದ್ರತಾ ಕ್ರಮಗಳು ಮತ್ತು ನಿಯಮಾವಳಿಗಳು"
101;"Web Browser";"ವೆಬ್ ಬ್ರೌಸರ್";"ಜಾಲ ವೀಕ್ಷಕ";"A web browser is application software for accessing the World Wide Web.";"ವಿಶ್ವವ್ಯಾಪಿ ಜಾಲವನ್ನು ಬಳಸಲು ಉಪಯೋಗಿಸುವ ಅನ್ವಯಿಕ ತಂತ್ರಾಂಶ"
102;"Session Identifier";"ಸೆಷನ್ ಐಡೆಂಟಿಫಯರ್";"ಅವಧಿ ಗುರುತು ಚಿಹ್ನೆ";"An arbitrary byte sequence chosen by the server to identify
an active or resumable session state.";"ಒಂದು ಸಕ್ರಿಯ ಅಥವಾ ಪುನರಾರಂಭಿಸಬಲ್ಲ ಅವಧಿ ಸ್ಥಿತಿಯನ್ನು ಗುರುರ್ತಿಸಲು ಸರ್ವರ್ ಅಯ್ಕೆಮಾಡಿದ ಯಾವುದೋ ಕ್ರಮವಿಲ್ಲದ ಬೈಟುಗಳ ಸಾಲು "
103;"Peer Certificate";"ಪೀರ್ ಸರ್ಟಿಫಿಕೇಟ್";"ಸಹವರ್ತಿ ಪ್ರಮಾಣಪತ್ರ";"An X509.v3 certificate of the peer.";"ಸಹವರ್ತಿಯ X509.v3 ಪ್ರಮಾಣಪತ್ರ"
104;"CipherSuite";"ಸೈಫರ್ ಸೂಟ್";"ಸೈಫರ್ ಸಮೂಹ";"This is a list that contains the combinations of cryptographic
algorithms supported by the client, in decreasing order of preference.";"ಈ ಪಟ್ಟಿಯು ಗ್ರಾಹಕನು ಬೆಂಬಲಿಸುವ ಗೂಢಲಿಪೀಕರಣ ಅಲ್ಗೊರಿಥಮ್ಗಳ ಸಂಯೋಜನೆಗಳನ್ನು ಆದ್ಯತೆಯ ಮೇರೆಗೆ ಅವರೋಹಣ ಕ್ರಮದಲ್ಲಿ ಹೊಂದಿರುತ್ತದೆ.
"
105;"Ephemeral Key";"ಎಫಿಮರಲ್ ಕೀಲಿ";"ಅಲ್ಪಕಾಲಿಕ ಕೀಲಿ";"A cryptographic key that is generated for each execution of a key- establishment process and is typically used once.";"ಕೀಲಿ-ಸ್ಥಾಪನಾ ಪ್ರಕ್ರಿಯೆಯಲ್ಲಿ ಪ್ರತಿ ನಡೆಯಲ್ಲಿ ಉತ್ಪಾದಿಸಲಾಗುವ ಗೂಢಲಿಪೀಕರಣ ಕೀಲಿ, ಇದನ್ನು ಸಮಾನ್ಯವಾಗಿ ಒನ್ದು ಬಾರಿ ಮಾತ್ರ ಬಳಸಲಾಗುತ್ತದೆ."
106;"Version Number";"ವರ್ಶನ್ ನಂಬರ್";"ಅವೃತ್ತಿ ಸಂಖ್ಯೆ";"a number to indicate the version of TLS. It indicates both major version and minor version";"ಟಿ ಎಲ್ ಎಸ್ ಅವೃತ್ತಿ ಸೂಚಕ ಸಂಖ್ಯೆ,, ಇದು ಪ್ರಧಾನ ಆವೃತ್ತಿ ಮತ್ತು ಕಿರಿಯ ಆವೃತ್ತಿಗಳನ್ನು ಸೂಚಿಸುತ್ತದೆ."
107;"TLS Handshake";"ಟಿ ಎಲ್ ಎಸ್ ಹ್ಯಾಂಡ್ಶೇಕ್";"ಟಿ ಎಲ್ ಎಸ್ ಹಸ್ತಲಾಘವ";"A TLS handshake enables clients and servers to establish a secure connection and create session keys.";"ಗ್ರಾಹಕರು ಮತ್ತು ಸರ್ವರುಗಳ ಮಧ್ಯೆ  ಸುಭದ್ರ ಸಂಪರ್ಕ ಏರ್ಪಡಿಸಲು ಮತ್ತು ಅವಧಿ ಕೀಲಿಗಳನ್ನು ನಿರ್ಮಿಸಲು ಟಿ ಎಲ್ ಎಸ್ ಹಸ್ತಲಾಘವ ಸಾಧ್ಯವಾಗಿಸುತ್ತದೆ."
108;"Secure Shell";"ಸೆಕ್ಯೂರ್ ಶೆಲ್";"ಸುರಕ್ಷಿತ ಶೆಲ್";"It is a cryptographic network protocol for operating network services securely over an unsecured network.";"ಒಂದು ಅಭದ್ರ ಜಾಲಬಂಧದ ಮೇಲೆ ಜಾಲಬಂಧ ಸೇವೆಗಳನ್ನು ಸುಭದ್ರವಾಗಿ ನೀಡುವ ಗೂಢಲಿಪೀಕರಣ ಜಾಲಬಂಧ ನಿಯಮಾವಳಿ"
109;"Algorithm Negotiation";"ಅಲ್ಗೊರಿಥಮ್ ನೆಗೋಶಿಯೆಶನ್";"ಅಲ್ಗೊರಿಥಮ್ ಸಮಾಲೋಚನೆ";"In the SSH connection during the key exchange phase the client and server decide together which algorithm should be used for encryption, data integrity, key exchange, public key and compression purposes";"ಎಸೆಸೆಚ್ ಸಂವಹನದ ಕೀಲಿ ವಿನಿಮಯ ಸಮಯದಲ್ಲಿ ಗ್ರಾಹಕರು ಮತ್ತು ಸರ್ವರುಗಳು ಗೂಢಲಿಪೀಕರಣ, ದತ್ತಾಂಶ ಸಮಗ್ರತೆ, ಕೀಲಿ ವಿನಿಮಯ, ಸಾರ್ವಜನಿಕ ಕೀಲಿ ಮತ್ತು ಗಾತ್ರ ಕುಗ್ಗಿಸುವಿಕೆ ಇವೆಲ್ಲವುಗಳಿಗೆ ಯಾವ ಅಲ್ಗೊರಿಥಮ್ ಬಳಸಬೇಕು ಎಂದು ಜೊತೆಯಾಗಿ ನಿರ್ಧರಿಸುತ್ತವೆ"
110;"Port Forwarding";"ಪೋರ್ಟ್ ಫಾರ್ವರ್ಡಿಂಗ್";"ಪೋರ್ಟ್ ಫಾರ್ವರ್ಡಿಂಗ್";"port forwarding provides the ability to convert any insecure TCP connection into a secure SSH connection.";"ಯಾವುದೇ ಅಭದ್ರ ಟಿಸಿಪಿ ಸಂವಹನವನ್ನು ಸುರಕ್ಷಿತ ಎಸೆಸೆಚ್ ಸಂವಹನವನ್ನಾಗಿ ಮಾರ್ಪಡಿಸುವ ಸಾಮರ್ಥ್ಯವನ್ನು ಪೋರ್ಟ್ ಫಾರ್ವರ್ಡಿಂಗ್ ನೀಡುತ್ತದೆ."
111;"Intruder";"ಇಂಟ್ರೂಡರ್";"ನುಸುಳುಕೋರ";"Intruders are the attackers who attempt to breach the security of a network. They attack the network in order to get unauthorized access. ";"ನುಸುಳುಕೋರರು ಜಾಲಬಂಧದ ಭದ್ರತೆಯನ್ನು ಭಂಗಪಡಿಸಲು ಯತ್ನಿಸುವ ದಾಳಿಕೋರರು. ಅನಧಿಕೃತ ಪ್ರವೇಶಾಧಿಕಾರವನ್ನು ಪಡೆಯುವ ಸಲುವಾಗಿ ಅವರು ಜಾಲಬಂಧದ ಮೇಲೆ ದಾಳಿ ಮಾಡುತ್ತಾರೆ. "
112;"Hacker";"ಹ್ಯಾಕರ್";"ಹ್ಯಾಕರ್";"The person who is skilled in information technology who uses their technical knowledge to achieve a goal or overcome an obstacle, within a computerized system by non-standard means.";"ಈ ವ್ಯಕ್ತಿ ಮಾಹಿತಿ ತಂತ್ರಜ್ಞಾನದಲ್ಲಿ ನಿಪುಣನಾಗಿದ್ದು ಅವನು ತನ್ನ ತಾಂತ್ರಿಕ ಜ್ಞಾನವನ್ನು ಅಸಾಮಾನ್ಯ ರೀತಿಯಲ್ಲಿ ಒಂದು ಗಣಕೀಕೃತ ವ್ಯವಸ್ಥೆಯೊಳಗೆ  ಗುರಿಯನ್ನು ಸಾಧಿಸಲು ಅಥವಾ ಅಡಚಣೆಯನ್ನು ನಿವಾರಿಸಲು ಬಳಸುತ್ತಾನೆ."
113;"Cracker";"ಕ್ರ್ಯಾಕರ್";"ಕ್ರ್ಯಾಕರ್";"the person who is able to subvert computer security for malicious purposes.";"ಈ ವ್ಯಕ್ತಿಯು ಕೆಡುಕು ಉದ್ದೇಶಗಳಿಗಾಗಿ ಗಣಕ ಭದ್ರತೆಯನ್ನು ಕೆಡಿಸುವ ಸಮಾರ್ಥ್ಯವನ್ನು ಹೊಂದಿರುತ್ತಾನೆ."
114;"Masquerader";"ಮಾಸ್ಕರೇಡರ್";"ಮಾರುವೇಷಗಾರ";"Masquerader is an external user who is not authorized to use a computer, and yet tries to gain privileges to access a legitimate user's account.";"ಮಾರುವೇಷಗಾರ ಈತನಿಗೆ ಗಣಕ ಯಂತ್ರವನ್ನು ಬಳಸುವ ಅಧಿಕಾರವಿಲ್ಲದಿದ್ದರೂ ಕೂಡ ಓರ್ವ ನ್ಯಾಯಸಮ್ಮತ ಬಳಕೆದಾರನ ಖಾತೆಯನ್ನು ಬಳಸಲು ಬೇಕಾದ ಸವಲತ್ತುಗಳನ್ನು ಪಡೆಯಲು ಪ್ರಯತ್ನಿಸುತ್ತಾನೆ."
115;"Misfeasor";"ಮಿಸ್ಫೀಸರ್";"ಮಿಸ್ಫೀಸರ್";"legitimate user who makes unauthorized accesses or misuses his privileges ";"ಇವನು ನ್ಯಾಯಸಮ್ಮತ ಬಳಕೆದಾರನಾಗಿದ್ದರೂ ಸಹ ಅನಧಿಕೃತ ಪ್ರವೇಶಗಳಿಸಲು ಪ್ರಯತ್ನಿಸುತ್ತಾನೆ ಅಥವಾ ತನ್ನ ಸವಲತ್ತುಗಳನ್ನು ದುರ್ಬಳಕೆ ಮಾಡುತ್ತಾನೆ"
116;"Clandestine User";"ಕ್ಲಾಂಡೆಸ್ಟೈನ್ ಯುಸರ್";"ಕಳ್ಳಾಟಿಕೆಯ ಬಳಕೆದಾರ";"seizes supervisory control to evade auditing and access controls or suppress audit collection";"ಈತನು ಲೆಕ್ಕಪರಿಶೋಧನೆ ಮತ್ತು ಪ್ರವೇಶಾಧಿಕಾರ ನಿಯಂತ್ರಣವನ್ನು ತಪ್ಪಿಸಿಕೊಳ್ಳಲು ಅಥವಾ ಲೆಕ್ಕಪರಿಶೋಧನಾ ಮಾಹಿತಿ ಕಲೆಹಾಕುವಿಕೆಯನ್ನು ತಡೆಯುವ ಸಲುವಾಗಿ ಮೇಲುಸ್ತುವಾರಿ ನಿಯಂತ್ರಣವನ್ನು ತಾನೆ ವಶಪಡಿಸಿಕೊಳ್ಳುತ್ತಾನೆ."
117;"Audit Records";"ಆಡಿಟ್ ರೆಕಾರ್ಡ್ಸ್";"ಲೆಕ್ಕಪರಿಶೋಧನೆ ದಾಖಲೆಗಳು";"record of daily activities by users kept for the purpose of intrusion detection";"ನುಸುಳುವಿಕೆ ಪತ್ತೆದಾರಿಕೆಯ ಸಲುವಾಗಿ ಇಡಲಾದ ಬಳಕೆದಾರರ ದೈನಂದಿನ ಚಟುವಟಿಕೆಗಳ ದಾಖಲೆ"
118;"Statistical Anomaly Detection";"ಸ್ಟಾಟಿಸ್ಟಿಕಲ್ ಅನಾಮೊಲಿ ಡಿಟೆಕ್ಷನ್";"ಅಂಕಿಅಂಶಗಳ ವೈಪರೀತ್ಯ ಪತ್ತೆದಾರಿಕೆ";"Involves the collection of data relating to the behavior of legitimate users over a period of time. Then statistical tests are applied to observed behavior to determine with a high level of confidence whether that behavior is not legitimate user behavior.";"ಇದು ಅಧಿಕೃತ ಬಳಕೆದಾರರ ನಡವಳಿಕೆಗೆ ಸಂಬಂಧಿಸಿದ ಮಾಹಿತಿ ಕಲೆ ಹಾಕುವಿಕೆಯನ್ನು ಒಳಗೊಂಡಿರುತ್ತದೆ. ಈ ಗಮನಿಸಲಾದ ನಡವಳಿಕೆ ಮಾಹಿತಿಯ ಮೇಲೆ ಅಂಕಿಅಂಶಗಳ ಪರೀಕ್ಷೆಗೊಳಪಡಿಸುವುದರಿಂದ ಗಮನಿಸಲಾದ ನಡವಳಿಕೆಯು ನ್ಯಾಯಸಮ್ಮತ ಬಳಕೆದಾರ ನಡವಳಿಕೆ ಹೌದೋ ಅಲ್ಲವೋ ಎಂದು ಉನ್ನತ ಮಟ್ಟದ ಭರವಸೆಯೊಂದಿಗೆ ನಿರ್ಧರಿಸಬಹುದು."
119;"Honeypot";"ಹನಿಪಾಟ್";"ಜೇನುಕೊಡ";"Honeypots are decoy systems that are designed to lure a potential attacker away
from critical systems.";"ಜೇನುಕೊಡಗಳು ಆಕರ್ಷಣಾ ವ್ಯವಸ್ಥೆಗಳಾಗಿದ್ದು, ಇವುಗಳನ್ನು ಸಂಭಾವ್ಯ ದಾಳಿಕೋರರನ್ನು ಆಮಿಷವೊಡ್ಡಿ ಮಹತ್ವದ ವ್ಯವಸ್ಥೆಗಳಿಂದ ದೂರವಿಡಲು ಬಳಸುತ್ತಾರೆ."
120;"Peer Entity Authentication";"ಪೀರ್ ಎಂಟಿಟಿ ಅಥೆಂಟಿಕೆಶನ್";"ಸಹವರ್ತಿ ವಸ್ತು ಧೃಡೀಕರಣ";"The process of verifying that a peer entity in an association is as claimed.";"ಸಂಬಂಧದಲ್ಲಿರುವ ಒಂದು ಸಹವರ್ತಿ ವಸ್ತು ತಾನು ಹೇಳಿದ ಗುರುತಿನಂತೆಯೇ ಇದೇ ಎಂದು ಪರಿಶೀಲಿಸುವ ಪ್ರಕ್ರಿಯೆ "
121;"Password Management";"ಪಾಸ್ವರ್ಡ್ ಮ್ಯಾನೇಜ್ಮೆಂಟ್";"ಗುಪ್ತಪದ ನಿರ್ವಹಣೆ";"Password management is a set of principles and best practices to be followed by users while storing and managing passwords in an efficient manner to secure passwords";"ಗುಪ್ತಪದ ನಿರ್ವಹಣೆ, ಇದು ಬಳಕೆದಾರರು ತಮ್ಮ ಗುಪ್ತಪದಗಳನ್ನು ದಕ್ಷ ರೀತಿಯಲ್ಲಿ ಸುರಕ್ಷಿತವಾಗಿ  ಸಂಗ್ರಹಿಸಲು ಅನುಸರಿಸಬೇಕಾದ ಉತ್ತಮ ಅಭ್ಯ್ಯಾಸಗಳು ಮತ್ತು ಸಿದ್ಧಾಂತಗಳ ಸಮೂಹ"
122;"Malicious Software";"ಮಾಲಿಶಿಯಸ್ ಸಾಫ್ಟ್ವೇರ್";"ಕೆಡುಕು ತಂತ್ರಾಂಶ";"Malicious software is software that is intentionally included or inserted in a computer system for a harmful purpose.";"ಕೆಡುಕು ಮಾಡುವ ಉದ್ದೇಶದಿಂದ ಗಣಕ ವ್ಯವಸ್ಥೆಯಲ್ಲಿ ಉದ್ದೇಶಪೂರಿತವಾಗಿ ಸೇರಿಸಲಾದ ತಂತ್ರಾಂಶ "
123;"Malware";"ಮಾಲ್ವೇರ್";"ಕೆಡುಕು ತಂತ್ರಾಂಶ";"Malicious software is software that is intentionally included or inserted in a computer system for a harmful purpose.";"ಕೆಡುಕು ಮಾಡುವ ಉದ್ದೇಶದಿಂದ ಗಣಕ ವ್ಯವಸ್ಥೆಯಲ್ಲಿ ಉದ್ದೇಶಪೂರಿತವಾಗಿ ಸೇರಿಸಲಾದ ತಂತ್ರಾಂಶ "
124;"Virus";"ವೈರಸ್";"ವೈರಸ್";"A computer program that can copy itself and infect a computer without
permission or knowledge of the user.";"ಬಳಕೆದಾರನ ಅನುಮತಿಯಿಲ್ಲದೆ ಅಥವಾ ಅರಿವಿಲ್ಲದೆ ಗಣಕ ಯಂತ್ರವನ್ನು ಸೋಂಕಿಗೀಡು ಮಾಡಬಲ್ಲ ಮತ್ತು ತನನ್ನು ತಾನೇ ನಕಲಿಸಕೊಳ್ಳಬಲ್ಲ ಒಂದು ಗಣಕ ಪ್ರೊಗ್ರಾಮು."
125;"Worm";"ವರ್ಮ್";"ವರ್ಮ್";"A computer program that can run independently and can propagate a complete working
version of itself onto other hosts on a network.";"ಇದು ಒಂದು ಸ್ವತಂತ್ರವಾಗಿ ನೆಡೆಯಬಲ್ಲ ಪ್ರೊಗ್ರಾಮು ಮತ್ತು ತನ್ನ ಸಂಪೂರ್ಣ ಕಾರ್ಯರೂಪಿ ಆವೃತ್ತಿಯನ್ನು ಜಾಲಬಂಧದ ಇತರೇ ಗಣಕಗಳಿಗೆ ವ್ಯಾಪಿಸಬಲ್ಲುದಾಗಿದೆ."
126;"Logic Bomb";"ಲಾಜಿಕ್ ಬಾಂಬ್";"ಲಾಜಿಕ್ ಬಾಂಬ್";"A program inserted into software by an intruder. A logic bomb lies dormant until a predefined condition is met; the program then triggers an unauthorized act.";"ಇದು ಒಂದು ನುಸುಳುಕೋರನಿಂದ ತಂತ್ರಾಂಶದೊಳಗೆ ಸೇರಿಸಲಾದ ಪ್ರೊಗ್ರಾಮು. ಈ ಲಾಜಿಕ್ ಬಾಂಬ್ ಒಂದು ಪೂರ್ವನಿರ್ಧಾರಿತ ಶರತ್ತು ಪೂರೈಸುವವರೆಗೆ ಸುಪ್ತಾವಸ್ಥೆಯಲ್ಲಿ ಇರುತ್ತದೆ; ನಂತರ ಆ ಪ್ರೊಗ್ರಾಮು ಒಂದು ಅನಧಿಕೃತ ಕಾರ್ಯಕ್ಕೆ ಚಾಲನೆ ನೀಡುತ್ತದೆ."
127;"Trojan horse";"ಟ್ರೋಜನ್ ಹಾರ್ಸ್";"ಟ್ರೋಜನ್ ಹಾರ್ಸ್";"A computer program that appears to have a useful function, but also has a hidden and potentially malicious function that evades security mechanisms";"ಈ ಗಣಕ ಪ್ರೊಗ್ರಾಮು ಮೆಲ್ನೋಟಕ್ಕೆ ಉಪಯುಕ್ತ ಕೆಲಸ ಮಾಡುವಂತೆ ಕಂಡರೂ ಗುಪ್ತವಾಗಿ ಭದ್ರತಾ ತಪಾಸಣೆಗಳ ಕಣ್ತಪ್ಪಿಸಿ ಕೆಡುಕು ಉಂಟು ಮಾಡಬಲ್ಲ ಸಂಭಾವ್ಯ ಲಕ್ಷಣಗಳನ್ನು ಹೊಂದಿರುತ್ತದೆ "
128;"Backdoor";"ಬ್ಯಾಕ್ಡೋರ್";"ಹಿಂಬಾಗಿಲು";"Any mechanism that bypasses a normal security check; it may allow unauthorized access
to functionality.";"ಸಾಮಾನ್ಯ ಭದ್ರತಾ ತಪಾಸಣೆಯನ್ನು ಕಡೆಗಣಿಸಬಲ್ಲ ಯಾವುದೇ ಕಾರ್ಯತಂತ್ರ; ಇದು ವ್ಯವಸ್ಥೆಯ ಅನಧಿಕೃತ ಪ್ರವೇಶವಕಾಶವನ್ನು ನೀಡಲೂಬಹುದು. "
129;"Spammer Programs";"ಸ್ಪ್ಯಾಮ್ಮರ್ ಪ್ರೊಗ್ರ್ರಾಮ್ಸ್";"ಸ್ಪ್ಯಾಮ್ಮರ್ ಪ್ರೊಗ್ರ್ರಾಮ್ಸ್";"Programs used to send large volumes of unwanted e-mail.";"ಭಾರಿ ಪ್ರಮಾಣದ ನಿರುಪಯುಕ್ತ ಈಮೇಲುಗಳನ್ನು ಕಳುಹಿಸಲು ಬಳಸುವ ಪ್ರೊಗ್ರಾಮು."
130;"Auto-rooter";"ಆಟೋ-ರೂಟರ್";"ಆಟೋ-ರೂಟರ್";"Malicious hacker tools used to break into new machines remotely.";"ಹೊಸ ಗಣಕಯಂತ್ರಗಳೊಳಗೆ ದೂರದಿಂದಲೇ ಕದ್ದು ಪ್ರವೇಶ ಪಡೆಯಲು ಹ್ಯಾಕರ್ ಬಳಸುವ ಕೆಡುಕು ಸಾಧನಗಳು."
131;"Flooders";"ಫ್ಲಡರ್ಸ್";"ಫ್ಲಡರ್ಸ್";"Used to attack networked computer systems with a large volume of traffic to carry out a
denial-of-service (DoS) attack.";"ಸೇವಾ ನಿರಾಕರಣೆ (ಡಿಒಎಸ್) ದಾಳಿಯನ್ನು ಕಾರ್ಯಗತಗೊಳಿಸುವ ಸಲುವಾಗಿ ಜಾಲಬಂಧ ಸಂಪರ್ಕಿತ ಗಣಕಯಂತ್ರಗಳ ಮೇಲೆ ಭಾರಿ ಪ್ರಮಾಣದ ದತ್ತಾಂಶವನ್ನು ಹರಿಯಬಿಡಲು ಬಳಸುವ ಪ್ರೊಗ್ರಾಮು"
132;"Keylogger";"ಕೀಲಾಗರ್";"ಕೀಲಾಗರ್";"This captures keystrokes on a compromised system.";"ಇದು ದಾಳಿಗೊಳಪಟ್ಟ ಗಣಕದಲ್ಲಿನ ಕೀಲಿಒತ್ತುಗಳನ್ನು ಗ್ರಹಿಸಿಕೊಳ್ಳುತ್ತದೆ."
133;"Rootkit";"ರೂಟ್ಕಿಟ್";"ರೂಟ್ಕಿಟ್";"Set of hacker tools used after attacker has broken into a computer system and gained root-level access.";"ದಾಳಿಕೋರನು ಗಣಕಯಂತ್ರವೊಂದಕ್ಕೆ ಅನಧಿಕೃತ ಪ್ರವೇಶಗಳಿಸಿ ಅಲ್ಲಿ ಪರಮಾಧಿಕಾರ ಪಡೆದುಕೊಂಡ ಮೇಲೆ ಬಳಸುವ ಹ್ಯಾಕರ್ ಸಾಧನಗಳ ಸಮೂಹ."
134;"Zombie";"ಝೋಂಬಿ";"ಝೋಂಬಿ";"Program activated on an infected machine that is activated to launch attacks on other Machines.";"ಸೋಂಕಿತ ಗಣಕಯಂತ್ರದಲ್ಲಿ ಕ್ರಿಯಾಶೀಲಗೊಳಿಸಲಾದ ಪ್ರೊಗ್ರಾಮು, ಇದನ್ನು ಬೇರೆ ಗಣಕಯಂತ್ರಗಳ ಮೇಲೆ ದಾಳಿಯನ್ನು ಸಂಯೋಜಿಸಲು ಕ್ರಿಯಾಶೀಲಗೊಳಿಸಲಾಗಿರುತ್ತದೆ."
135;"Bot";"ಬಾಟ್";"ಬಾಟ್";"Program activated on an infected machine that is activated to launch attacks on other Machines.";"ಸೋಂಕಿತ ಗಣಕಯಂತ್ರದಲ್ಲಿ ಕ್ರಿಯಾಶೀಲಗೊಳಿಸಲಾದ ಪ್ರೊಗ್ರಾಮು, ಇದನ್ನು ಬೇರೆ ಗಣಕಯಂತ್ರಗಳ ಮೇಲೆ ದಾಳಿಯನ್ನು ಸಂಯೋಜಿಸಲು ಕ್ರಿಯಾಶೀಲಗೊಳಿಸಲಾಗಿರುತ್ತದೆ."
136;"Spyware";"ಸ್ಪೈವೇರ್";"ಗೂಢಚಾರ ತಂತ್ರಾಂಶ";"Software that collects information from a computer and transmits it to another system.";"ಒಂದು ಗಣಕಯಂತ್ರದಲ್ಲಿನ ಮಾಹಿತಿಯನ್ನು ಕಲೆಹಾಕಿ ಬೇರೊಂದು ಗಣಕಯಂತ್ರಕ್ಕೆ ಗುಟ್ಟಾಗಿ ರವಾನೆ ಮಾಡುವ ತಂತ್ರಾಂಶ."
137;"Adware";"ಆಡ್ವೇರ್";"ಜಾಹಿರಾತು ತಂತ್ರಾಂಶ";"Advertising that is integrated into software. It can result in pop-up ads or redirection of a
browser to a commercial site.";"ಜಾಹೀರಾತುದಾರಿಕೆಯನ್ನು ಅಂತರ್ಗತ ಮಾಡಿಕೊಂಡ ತಂತ್ರಾಂಶ. ಇದರಿಂದ ಪಾಪಪ್ ಜಾಹಿರಾತುಗಳು ಅಥವಾ ವಾಣಿಜ್ಯ ಜಾಲತಾಣಗಳಿಗೆ ಬ್ರೌಸರ್ ಪುನರ್ನಿರ್ದೇಶನ ಉಂಟಾಗಬಹುದು"
138;"Dormant Phase";"ಡಾರ್ಮೆಂಟ್ ಫೇಸ್";"ಸುಪ್ತ ಅವಸ್ಥೆ";"In this phase the virus is idle. The virus will eventually be activated by some event.";"ಈ ಅವಸ್ಥೆಯಲ್ಲಿ ವೈರಸ್ಸು ನಿಷ್ಕ್ರಿಯವಾಗಿರುತ್ತದೆ. ಈ ವೈರಸ್ಸು ಕೊನೆಯಲ್ಲಿ ಯಾವುದೋ ಒಂದು ಘಟನೆ ಸಂಭವಿಸುವುದರಿಂದ ಕ್ರಿಯಾಶೀಲವಾಗುತ್ತದೆ."
139;"Propagation Phase";"ಪ್ರಾಪಗೇಶನ್ ಫೇಸ್";"ಪ್ರಸರಣ ಅವಸ್ಥೆ";"In this phase the virus places a copy of itself into other programs or into certain system areas on the disk. Each infected program will now contain a clone of the virus, which will itself enter a propagation phase.";"ಈ ಅವಸ್ಥೆಯಲ್ಲಿ ವೈರಸ್ಸು ತನ್ನ ನಕಲುಪ್ರತಿಯನ್ನು ಬೇರೆ ಪ್ರೊಗ್ರ್ರಾಮುಗಳೊಳಗೆ ಅಥವಾ ಗಣಕಯಂತ್ರದ ಡಿಸ್ಕಿನ ನಿರ್ಧಿಷ್ಟ ಜಾಗಗಳಲ್ಲಿ ಇರಿಸುತ್ತದೆ. ಈ ಸೋಂಕಿಗೊಳಪಟ್ಟ ಪ್ರತಿಯೊಂದು ಪ್ರೊಗ್ರಾಮು ಈಗ ವೈರಸ್ಸಿನ ನಕಲನ್ನು ಹೊಂದಿರುತ್ತವೆ, ಅದೂ ಕೂಡ ಪ್ರಸರಣ ಅವಸ್ಥೆಯನ್ನು ಪ್ರವೇಶಿಸುತ್ತದೆ."
140;"Triggering Phase";"ಟ್ರಿಗ್ಗರಿಂಗ್ ಫೇಸ್";"ಪ್ರಚೋದನ ಅವಸ್ಥೆ";"In this phase the virus is activated to perform the function for which it was intended.";"ಈ ಅವಸ್ಥೆಯಲ್ಲಿ ವೈರಸ್ಸು ಅದು ಯಾವ ಕಾರ್ಯಕ್ಕಾಗಿ ಸಿದ್ಧಪಡಿಸಲಾಗಿದೆಯೋ ಅದನ್ನು ನೆರವೇರಿಸುವ ಸಲುವಾಗಿ ಕ್ರಿಯಾಶೀಲವಾಗುತ್ತದೆ."
141;"Execution Phase";"ಎಕ್ಸಿಕ್ಯೂಶನ್ ಫೇಸ್";"ಕಾರ್ಯಗತಗೊಳಿಸುವ ಅವಸ್ಥೆ";"In this phase the virus performs its intended function.";"ಈ ಅವಸ್ಥೆಯಲ್ಲಿ ವೈರಸ್ಸು ತಾನು ಎಸಗಬೇಕಾದ ಕಾರ್ಯವನ್ನು ನೆರವೇರಿಸುತ್ತದೆ."
142;"Boot Sector Infector";"ಬೂಟ್ ಸೆಕ್ಟರ್ ಇನ್ಫೆಕ್ಟರ್";"ಬೂಟ್ ಸೆಕ್ಟರ್ ಸೋಂಕುಕಾರಕ";"This variety of virus infects a master boot record or boot record and spreads when a system is booted from the disk containing the virus.";"ಈ ಪ್ರಭೇದದ ವೈರಸ್ಸು ಮಾಸ್ಟರ್ ಬೂಟ್ ರೆಕಾರ್ಡ್ ಅಥವಾ ಬೂಟ್ ರೆಕಾರ್ಡ್ ಅನ್ನು ಸೋಂಕಿಗೀಡಾಗುವಂತೆ ಮಾಡುತ್ತವೆ. ಇಂತಹಾ ಸೋಂಕಾದ ಡಿಸ್ಕಿನಿಂದ ಗಣಕಯಂತ್ರವನ್ನು ಬೂಟ್ ಮಾಡುವುದರಿಂದ ಇದು ಹರಡುತ್ತದೆ."
143;"File Infector";"ಫೈಲ್ ಇನ್ಫೆಕ್ಟರ್";"ಕಡತ ಸೋಂಕುಕಾರಕ";"This variety of virus infects files that the operating system or shell consider to be
Executable.";"ಈ ಪ್ರಭೇದದ ವೈರಸ್ಸು ಆಪರೇಟಿಂಗ್ ಸಿಸ್ಟಂ ಅಥವಾ ಷೆಲ್ ಯಾವ ಕಡತಗಳನ್ನು ಎಕ್ಸಿಕ್ಯುಟೆಬಲ್ ಎಂದು ಪರಿಗಣಿಸುತ್ತದೆಯೋ ಅಂತಹ ಕಡತಗಳಿಗೆ ಸೋಂಕು ಹರಡುತ್ತದೆ."
144;"Macro Virus";"ಮ್ಯಾಕ್ರೋ ವೈರಸ್";"ಮ್ಯಾಕ್ರೋ ವೈರಸ್";"This variety of virus infects files with macro code that is interpreted by an application.";"ಈ ಪ್ರಭೇದದ ವೈರಸ್ಸು ಅನ್ವಯಿಕ ತಂತ್ರಾಂಶಗಳು ಬಳಸಬಹುದಾದ ಮ್ಯಾಕ್ರೊ ಕೋಡ್ ಉಳ್ಳ ಕಡತಗಳಿಗೆ ಸೋಂಕು ಹರಡುತ್ತದೆ."
145;"Stealth Virus";"ಸ್ಟೆಲ್ಥ್ ವೈರಸ್";"ನಿಗೂಢ ವೈರಸ್";"A form of virus explicitly designed to hide itself from detection by antivirus software.";"ಆಂಟಿವೈರಸ್ ತಂತ್ರಾಂಶಗಳ ಪತ್ತೆದಾರಿಕೆಯಿಂದ ತನ್ನನ್ನು ಮರೆಮಾಚಿಸಿಕೊಳ್ಳುವಂತೆ ವಿನ್ಯಾಸಗೊಳಿಸಲಾದ ವೈರಸ್ಸಿನ ಒಂದು ಪ್ರಭೇದ. "
146;"Polymorphic Virus";"ಪಾಲಿಮಾರ್ಫಿಕ್ ವೈರಸ್";"ಬಹುರೂಪಿ ವೈರಸ್";"A virus that mutates with every infection, making detection by the signature of the virus impossible.";"ಪ್ರತಿಯೊಂದು ಸೋಂಕಿನ ನಂತರವೂ ರೂಪಾಂತರಗೊಳ್ಳುವ ವೈರಸ್ಸು. ಇದರಿಂದಾಗಿ ಗುರುತು ಅಧಾರಿತ ವೈರಸ್ ಪತ್ತೆದಾರಿಕೆ ಅಸಾಧ್ಯವಾಗುತ್ತದೆ."
147;"Access Point (AP)";"ಆಕ್ಸೆಸ್ ಪಾಯಿಂಟ್ (ಎಪಿ)";"ಆಕ್ಸೆಸ್ ಪಾಯಿಂಟ್ (ಎಪಿ)";"A device that allows other Wi-Fi devices to connect to a wired network. ";"ಬೇರೊಂದು ವೈಫೈ ಸಲಕರಣೆಗಳಿಗೆ ತಂತು ಜಾಲಬಂಧಕ್ಕೆ ಸಂಪರ್ಕ ಸಾಧಿಸಲು ಅನುವು ಮಾಡಿಕೊಡುವ ಸಲಕರಣೆ."
148;"Pretty Good Privacy (PGP)";"ಪ್ರೆಟ್ಟಿ ಗುಡ್ ಪ್ರೈವೆಸಿ (ಪಿಜಿಪಿ)";"ಪ್ರೆಟ್ಟಿ ಗುಡ್ ಪ್ರೈವೆಸಿ (ಪಿಜಿಪಿ)/ ತೃಪ್ತಿಕರ ಗೌಪ್ಯತೆ (ಪಿಜಿಪಿ)";"PGP is an open-source, freely available software package for e-mail security. It provides authentication and confidentiality services for e-mail.";"ಪಿಜಿಪಿ ಮಿಚಂಚೆಯ ಭದ್ರತೆಗಾಗಿ ಇರುವ ಮುಕ್ತ ಮತ್ತು ಉಚಿತ ತಂತ್ರಾಂಶ. ಇದು ಮಿಂಚಂಚೆಗೆ ಧೃಢೀಕರಣ ಮತ್ತು ಗೌಪ್ಯತೆ ಸೇವೆಗಳನ್ನು ನೀಡುತ್ತದೆ."
149;"Cyberspace";"ಸೈಬರ್ಸ್ಪೆಸ್";"ಸೈಬರ್ ವಲಯ";"A global domain within the information environment consisting of the interdependent network of information systems infrastructures including the Internet, telecommunications networks, computer systems, and embedded processors and controllers.";"ಪರಸ್ಪರ ಅವಲಂಬಿತ ಮಾಹಿತಿ ಮೂಲಸೌಕರ್ಯ ವ್ಯವಸ್ಥೆಗಳ ಜಾಲವನ್ನೊಳಗೊಂಡ ಮಾಹಿತಿ ಪರಿಸರದಲ್ಲಿನ ಒಂದು ಜಾಗತಿಕ ವಲಯ. ಇದು ಅಂತರ್ಜಾಲ, ದೂರವಾಣಿ ಜಾಲ, ಗಣಕಯಂತ್ರ ವ್ಯವಸ್ಥೆಗಳು ಮತ್ತು ಎಂಬೆಡೆಡ್ ಪ್ರೊಸೆಸರ್ ಮತ್ತು ನಿಯಂತ್ರಕಗಳನ್ನು ಒಳಗೊಂಡಿರುತ್ತದೆ."
150;"Cybersecurity";"ಸೈಬರ್ ಸೆಕ್ಯೂರಿಟಿ";"ಸೈಬರ್ ಭದ್ರತೆ";"The ability to protect or defend the use of cyberspace from cyber attacks.";"ಸೈಬರ್ ವಲಯವನ್ನು ಸೈಬರ್ ದಾಳಿಗಳಿಂದ ರಕ್ಷಿಸಿಕೊಳ್ಳುವ ಅಥವಾ ಭದ್ರಪಡಿಸುವ ಸಾಮರ್ಥ್ಯ."
151;"Least Privilege";"ಲೀಸ್ಟ್  ಪ್ರಿವಿಲೇಜ್";"ಕನಿಷ್ಠ ಸೌಲಭ್ಯ";"The principle that a security architecture should be designed so that each entity is granted the minimum system resources and authorizations that the entity needs to perform its function.";"ಈ ಸಿದ್ಧಾಂತದ ಪ್ರಕಾರ ಭದ್ರತಾ ವಾಸ್ತುಶಿಲ್ಪ ಹೇಗೆ ವಿನ್ಯಾಸ ಮಾಡಿರಬೇಕೆಂದರೆ ಅದರಲ್ಲಿನ ಪ್ರತಿಯೊಂದು ವಸ್ತುವಿಗೆ ತನ್ನ ಕಾರ್ಯ ನಿರ್ವಹಿಸಲು ಬೇಕಾದ ಕನಿಷ್ಠ ಸಂಪನ್ಮೂಲಗಳು ಮತ್ತು ಪರವಾನಗಿಯನ್ನಷ್ಟೇ ಮಂಜೂರು ಮಾಡಬೇಕು."
152;"Least Trust";"ಲೀಸ್ಟ್  ಟ್ರಸ್ಟ್";"ಕನಿಷ್ಠ ನಂಬಿಕೆ";"The principle that a security architecture should be designed in a way that minimizes firstly the number of components that require trust and secondly the extent to which each component is trusted.";"ಈ ಸಿದ್ಧಾಂತದ ಪ್ರಕಾರ ಭದ್ರತಾ ವಾಸ್ತುಶಿಲ್ಪ ಹೇಗೆ ವಿನ್ಯಾಸ ಮಾಡಿರಬೇಕೆಂದರೆ ಮೊದಲಿಗೆ ನಂಬಿಕೆ ಅವಶ್ಯವಿರುವ ಘಟಕಗಳ ಸಂಖ್ಯೆಯನ್ನು ತಗ್ಗಿಸುವಂತಿರಬೇಕು ಮತ್ತು ಎರಡನೆಯದಾಗಿ ಪ್ರತಿ ಘಟಕದ ನಂಬಿಕೆಯ ಮಟ್ಟವನ್ನು ತಗ್ಗಿಸುವಂತಿರಬೇಕು."
153;"Virtual Private Network (VPN)";"ವರ್ಚುಯಲ್ ಪ್ರೈವೇಟ್ ನೆಟ್ವರ್ಕ್ (ವಿಪಿಎನ್)";"ಖಾಸಗಿ ಮಿಥ್ಯಾ ಜಾಲಬಂಧ (ವಿಪಿಎನ್)";"Protected information system link utilizing tunneling, security controls and endpoint address translation giving the impression of a dedicated line.";"ಟನಲಿಂಗ್, ಭದ್ರತಾ ನಿಯಂತ್ರಣಗಳು ಮತ್ತು ಅಂತ್ಯ ವಿಳಾಸ ಅನುವಾದವನ್ನು ಬಳಸಿಕೊಂಡು ರಚಿಸಲಾದ ಸುರಕ್ಷಿತ ಮಾಹಿತಿ ಮಾರ್ಗ, ಮೀಸಲಿಟ್ಟ ಮಾರ್ಗವೇನೊ ಎಂಬ ಭಾವನೆ ನೀಡುತ್ತದೆ."
154;"Wi-Fi Protected Access-2 (WPA2)";"ವೈಫೈ ಪ್ರೊಟೆಕ್ಟೆಡ್ ಅಕ್ಸೆಸ್-2 (ಡಬ್ಲ್ಯು ಪಿ ಎ ೨)";"ವೈಫೈ ಪ್ರೊಟೆಕ್ಟೆಡ್ ಅಕ್ಸೆಸ್-2 (ಡಬ್ಲ್ಯು ಪಿ ಎ ೨)";"The approved Wi-Fi Alliance interoperable implementation of the IEEE 802.11i security standard.";"ವೈ-ಫೈ ಒಕ್ಕೂಟ ಅನುಮೋದಿತ ಅಂತರ್ಕಾರ್ಯವಹಿಸಬಲ್ಲ ಕಾರ್ಯಗತಗೊಳಿಸಿದ IEEE 802.11i ಭದ್ರತಾ ಪ್ರಮಾಣ."
155;"Wireless Application Protocol (WAP)";"ವೈರ್ಲೆಸ್ ಅಪ್ಲಿಕೇಶನ್ ಪ್ರೊಟೋಕಾಲ್ (ಡಬ್ಲ್ಯು  ಎ ಪಿ)";"ವೈರ್ಲೆಸ್ ಅಪ್ಲಿಕೇಶನ್ ಪ್ರೊಟೋಕಾಲ್ (ಡಬ್ಲ್ಯು  ಎ ಪಿ)";"A standard that defines the way in which Internet communications and other advanced services are provided on wireless mobile devices.";"ನಿಸ್ತಂತು ಮೊಬೈಲ್ ಸಾಧನಗಳಲ್ಲಿ ಅಂತರ್ಜಾಲ ಸಂವಹನ ಮತ್ತು ಅತ್ಯಾಧುನಿಕ ಸೇವೆಗಳನ್ನು ಹೇಗೆ ನೀಡಬೇಕೆಂದು ವ್ಯಾಖ್ಯಾನಿಸುವ ಪ್ರಮಾಣ."
156;"Backup";"ಬ್ಯಾಕಪ್";"ಬ್ಯಾಕಪ್";"Copy of files and programs made to facilitate recovery in case of failure, if necessary.";"ವೈಫಲ್ಯವುಂಟಾದಾಗ ಮತ್ತೆ ಕಡತ ಮತ್ತು ಪ್ರೊಗ್ರಾಮುಗಳನ್ನು ಪುನಸ್ಸಂಪಾದನೆ ಮಾಡುವ ಸಲುವಾಗಿ ಇಡಲಾಗುವ ಕಡತ ಮತ್ತು ಪ್ರೊಗ್ರಾಮುಗಳ ನಕಲು"
157;"Biometrics";"ಬಯೋಮೆಟ್ರಿಕ್ಸ್";"ಬಯೋಮೆಟ್ರಿಕ್ಸ್";"Measurable physical characteristics or personal behavioral traits used to
identify, or verify the claimed identity, of an individual. Facial images, fingerprints, and handwriting samples are all examples of biometrics.";"ವ್ಯಕ್ತಿಯೋರ್ವನ ಗುರುತನ್ನು ಧೃಢೀಕರಿಸಲು ಅಥವಾ ಗುರುತಿಸಲು ಬಳಸಲಾಗುವ ಅಳೆಯಬಲ್ಲ ದೈಹಿಕ ಗುಣಲಕ್ಷಣಗಳು ಅಥವಾ ವೈಯಕ್ತಿಕ ನಡತೆ ಸಂಬಂಧಿ ವಿಶಿಷ್ಟ ಲಕ್ಷಣಗಳು"
158;"Blacklisting";"ಬ್ಲ್ಯಾಕ್ ಲಿಸ್ಟಿಂಗ್";" ಕಪ್ಪು ಪಟ್ಟಿಯಲ್ಲಿ ಸೇರಿಸುವಿಕೆ";"The process of the system invalidating a user ID based on the user’s inappropriate actions.";"ವ್ಯವಸ್ಥೆಯು ವ್ಯಕ್ತಿಯೋರ್ವನ ಯುಸರ್ IDಯನ್ನು, ಅವನ ಅನುಚಿತ ಕಾರ್ಯಗಳ ಆಧಾರದ ಮೇಲೆ ಅಮಾನ್ಯ ಮಾಡುವ ಪ್ರಕ್ರಿಯೆ."
159;"Computer Forensics";"ಕಂಪ್ಯೂಟರ್ ಫೊರೆನ್ಸಿಕ್ಸ್";"ಕಂಪ್ಯೂಟರ್ ಫೊರೆನ್ಸಿಕ್ಸ್";"The practice of gathering, retaining, and analyzing computer-related data for investigative purposes in a manner that maintains the integrity of the data.";"ಮಾಹಿತಿಯ ಸಮಗ್ರತೆಯನ್ನು ಪಾಲಿಸಿಕೊಳ್ಳುವ ಪರಿಶೋಧನೆಯ ಸಲುವಾಗಿ ಗಣಕಯಂತ್ರ ಸಂಬಂಧಿ ಮಾಹಿತಿಯನ್ನು ಕೂಡಿಹಾಕುವ, ಉಳಿಸಿಕೊಳ್ಳುವ ಮತ್ತು ವಿಶ್ಲೇಷಿಸುವ ಪ್ರಕ್ರಿಯೆ."
160;"Cookie";"ಕುಕಿ";"ಕುಕಿ";"Data exchanged between an HTTP server and a browser to store state information on the client side and retrieve it later for server use.";"ಸ್ಥಿತಿ ಮಾಹಿತಿಯನ್ನು ಗ್ರಾಹಕನ ಬದಿ ಸಂಗ್ರಹಿಸಲು ಮತ್ತು ಸರ್ವರಿನ ಬಳಕೆಗೆ ತಿರುಗಿ ಪಡೆಯಲು ಒಂದು HTTP ಸರ್ವರ್ ಮತ್ತು ಜಾಲತಾಣವೀಕ್ಷಕದ ನಡುವೆ ವಿನಿಮಯ ಮಾಡಿಕೊಳ್ಳಲಾಗುವ ದತ್ತಾಂಶ."
161;"Covert Channel";"ಕೊವರ್ಟ್ ಚಾನೆಲ್";"ಗುಪ್ತ ಮಾರ್ಗ";"An unauthorized communication path that manipulates a communications
medium in an unexpected, unconventional or unforeseen way in order to transmit information without detection by anyone other than the entities operating the covert channel.";"ಇದು ಒಂದು ಸಂವಹನ ಮಾಧ್ಯಮವನ್ನು ಯಾರೂ ಊಹಿಸದ, ಅಸಾಮಾನ್ಯ ಅಥವಾ ಕೇಳರಿಯದ ರೀತಿಯಲ್ಲಿ ದುರುಪಯೋಗಪಡಿಸಿಕೊಂಡು ಮಾಹಿತಿಯನ್ನು ಯಾವ ಪತ್ತೆದಾರಿಕೆಗು ಸಿಲುಕದೆ ಕೇವಲ ಈ ಗುಪ್ತ ಮಾರ್ಗವನ್ನು ನೆಡೆಸುತ್ತಿರುವವರಿಗೆ ಮಾತ್ರ ತಿಳಿದಂತಹ ಒಂದು ಅನಧಿಕೃತ ಸಂಭಾಷಣಾ ಮಾರ್ಗ."
162;"Cyclic Redundancy Check";"ಸೈಕ್ಲಿಕ್ ರಿಡಂಡೆನ್ಸಿ ಚೆಕ್";"ಸೈಕ್ಲಿಕ್ ರಿಡಂಡೆನ್ಸಿ ಚೆಕ್";"Error checking mechanism that verifies data integrity by computing a polynomial algorithm based checksum.";"ಪಾಲಿನಾಮಿಯಲ್ ಅಲ್ಗೊರಿಥಮ್ ಆಧಾರಿತ ತಪಾಸಣಾಮೊತ್ತವನ್ನು ಕಂಡುಹಿಡಿದು ದತ್ತಾಂಶ ಸಮಗ್ರತೆಯನ್ನು ಪರಿಶೀಲಿಸುವ ದೋಷ ಪತ್ತೆ ಕ್ರಿಯಾವಿಧಾನ."
163;"End-To-End Security";"ಎಂಡ್-ಟು-ಎಂಡ್ ಸೆಕ್ಯೂರಿಟಿ";"ಎಂಡ್-ಟು-ಎಂಡ್ ಭದ್ರತೆ";"Safeguarding information in an information system from point of origin to point of destination.";"ಮಾಹಿತಿ ವ್ಯವಸ್ಥೆಯಲ್ಲಿ ಮೂಲಸ್ಥಾನದಿಂದ ಹಿಡಿದು ಗಮ್ಯಸ್ಥಾನದವರೆಗೂ ಮಾಹಿತಿಯನ್ನು ಸುಭದ್ರಗೊಳಿಸುವ ವಿಧಾನ."
164;"End-To-End Encryption";"ಎಂಡ್-ಟು-ಎಂಡ್ ಎಂಕ್ರಿಪ್ಷನ್";"ಎಂಡ್-ಟು-ಎಂಡ್ ಎಂಕ್ರಿಪ್ಷನ್";"Encryption of information at its origin and decryption at its intended destination without intermediate decryption.";"ಮಾಹಿತಿಯ ಮೂಲಸ್ಥಾನದಲ್ಲಿನ ಗೂಢಲಿಪೀಕರಣ ಮತ್ತು ಅದರ ಗಮ್ಯಸ್ಥಾನದಲ್ಲಿ ಮಾತ್ರ ಡಿಕ್ರಿಪ್ಷನ್ ವ್ಯವಸ್ಥೆ. ಇಲ್ಲಿ ಮಧ್ಯಮಿಕ ಡಿಕ್ರಿಪ್ಷನ್ ಇರುವುದಿಲ್ಲ."
165;"Error Detection Code";"ಎರರ್ ಡಿಟೆಕ್ಷನ್ ಕೋಡ್";"ದೋಷ ಪತ್ತೇದಾರಿಕೆ ಕೋಡ್";"A code computed from data and comprised of redundant bits of information designed to detect, but not correct, unintentional changes in the data.";"ದತ್ತಾಂಶವನ್ನು ಬಳಸಿ ಗಣಿಸಲಾದ ಕೋಡು ಮತ್ತು ಹೆಚ್ಚ್ಚ್ಚುವರಿ ಮಾಹಿತಿ ಬಿಟ್ಟುಗಳನ್ನು ಒಳಗೊಂಡಿರುತ್ತದೆ. ಇದನ್ನು ದತ್ತಾಂಶದಲ್ಲಿನ ಅನುದ್ದೇಶಿತ ಬದಲಾವಣೆಯನ್ನು ಪತ್ತೆಹಚ್ಚಲು, ಸರಿಪಡಿಸಲು ಅಲ್ಲ, ಬಳಸಲಾಗುತ್ತದೆ."
166;"False Acceptance";"ಫಾಲ್ಸ್ ಅಕ್ಸೆಪ್ಟೆನ್ಸ್";"ತಪ್ಪು ಸ್ವೀಕೃತಿ";"In biometrics, the instance of a security system incorrectly verifying or identifying an unauthorized person.";"ಬಯೋಮೆಟ್ರಿಕ್ಸ್ ಸಂಬಂಧಿಸಿದಂತೆ ಭದ್ರತಾ ವ್ಯವಸ್ಥೆಯು ಒಬ್ಬ ಅನಧಿಕೃತ ವ್ಯಕ್ತಿಯನ್ನು ತಪ್ಪಾಗಿ ಗುರುತಿಸುವ ಅಥವಾ ಧೃಢಪಡಿಸಿದ ಪ್ರಸಂಗ. "
167;"False Rejection";"ಫಾಲ್ಸ್ ರಿಜೆಕ್ಷನ್";"ತಪ್ಪು ತಿರಸ್ಕರಣೆ";"In biometrics, the instance of a security system failing to verify or identify an authorized person.";"ಬಯೋಮೆಟ್ರಿಕ್ಸ್ ಸಂಬಂಧಿಸಿದಂತೆ ಭದ್ರತಾ ವ್ಯವಸ್ಥೆಯು ಒಬ್ಬ ಅಧಿಕೃತ ವ್ಯಕ್ತಿಯನ್ನು  ಗುರುತಿಸುವಲ್ಲಿ ಅಥವಾ ಧೃಢಪಡಿಸುವಲ್ಲಿ ವಿಫಲವಾದ ಪ್ರಸಂಗ. "
168;"Firewall";"ಫೈರ್ವಾಲ್";"ಬೆಂಕಿಗೋಡೆ";"A hardware/software capability that limits access between networks and/or systems in accordance with a specific security policy.";"ಒಂದು ನಿರ್ಧಿಷ್ಟ ಭದ್ರತಾ ನಿಯಮಾವಳಿಯ ಪ್ರಕಾರ ಜಾಲಬಂಧಗಳ ಮತ್ತು ಗಣಕಯಂತ್ರಗಳ ನಡುವಿನ ಪ್ರವೇಶಾವಕಾಶವನ್ನು ಸೀಮಿತಗೊಳಿಸುವ ಯಂತ್ರಾಂಶ/ತಂತ್ರಾಂಶ ಸಾಮರ್ಥ್ಯ."
169;"Security Compromise";"ಸೆಕ್ಯೂರಿಟಿ ಕಾಂಪ್ರಮೈಸ್";"ಭದ್ರತಾ ವೈಫಲ್ಯ";"Disclosure of information to unauthorized persons, or a violation of the
security policy of a system in which unauthorized intentional or unintentional
disclosure, modification, destruction, or loss of data may have occurred.";"ಅನಧಿಕೃತ ವ್ಯಕ್ತಿಗಳಿಗೆ ಮಾಹಿತಿ ಬಯಲು ಮಾಡುವುದು ಅಥವಾ ವ್ಯವಸ್ಥೆಯ ಭದ್ರತಾ ನೀತಿಯ ಉಲ್ಲಂಘನೆ, ಇದರಲ್ಲಿ ಅನಧಿಕೃತವಾಗಿ ತಿಳಿದೋ ಅಥವಾ ತಿಳಿಯದೆಯೋ ಮಾಹಿತಿ ಬಯಲಾಗುವಿಕೆ, ಮಾಹಿತಿ ಬದಲಾವಣೆ, ಮಾಹಿತಿ ನಾಶ ಅಥವಾ ಮಾಹಿತಿ ನಷ್ಟ ಉಂಟಾಗಿರಬಹುದು."
170;"Hashing";"ಹ್ಯಾಶಿಂಗ್";"ಹ್ಯಾಶಿಂಗ್";"The process of using a mathematical algorithm against data to produce a numeric value that is representative of that data.";"ಮಾಹಿತಿಯ ಮೇಲೆ ಗಣಿತದ ಅಲ್ಗಾರಿಥಮ್ ಬಳಸಿ ಒಂದು ಸಾಂಖ್ಯಿಕ ಮಾಲ್ಯವನ್ನು ಉತ್ಪಾದಿಸುವ ಪ್ರಕ್ರಿಯೆ. ಈ ಸಾಂಖ್ಯಿಕ ಮೌಲ್ಯ ಆ ಮಾಹಿತಿಯ ಪ್ರಾತಿನಿಧಿಕವಾಗಿರುತ್ತದೆ."
171;"Computer Emergency Response Team (CERT)";"ಕಂಪ್ಯೂಟರ್ ಎಮರ್ಜೆನ್ಸಿ ರೆಸ್ಪೊನ್ಸ್ ಟೀಮ್ (ಸಿ ಇ ಆರ್ ಟಿ)";"ಗಣಕಯಂತ್ರ ತುರ್ತು  ಪ್ರತಿಕ್ರಿಯಾ ತಂಡ (ಸಿ ಇ ಆರ್ ಟಿ)";"A team that provides initial emergency response aid and triage services to the victims or potential victims of cyber operations or cyber crimes, usually in a manner that involves coordination between private sector and government entities.";"ಸೈಬರ್ ಕರ್ಯಾಚರಣೆ ಅಥವಾ ಸೈಬರ್ ಅಪರಾಧ ಸಂತ್ರಸ್ತರು ಅಥವಾ ಸಂಭಾವ್ಯ ಸಂತ್ರಸ್ತರಿಗೆ ಪ್ರಾಥಮಿಕ ತುರ್ತು ಪ್ರತಿಕ್ರಿಯೆ ಸೇವೆಗಳನ್ನು ನೀಡುವ ತಂಡ. ಸಮಾನ್ಯವಾಗಿ ಇದು ಖಾಸಗಿ ಹಾಗು ಸರ್ಕಾರಿ ಸಂಸ್ಥೆಗಳ ಹೊಂದಾಣಿಕೆಯೊಂದಿಗೆ ಸಾಧಿಸಲಾಗುತ್ತದೆ."
172;"Internet Service Provider (ISP)";"ಇಂಟರ್ನೆಟ್ ಸರ್ವೀಸ್ ಪ್ರೊವೈಡರ್ (ಐ ಎಸ್ ಪಿ)";"ಅಂತರ್ಜಾಲ ಸೇವಾ ಸರಬರಾಜುದಾರ (ಐ ಎಸ್ ಪಿ)";"A company that offers access to the Internet.";"ಅಂತರ್ಜಾಲಕ್ಕೆ ಪ್ರವೇಶಾವಕಾಶ ಒದಗಿಸುವ ಒಂದು ನಿಗಮ."
173;"Metadata";"ಮೆಟಾಡೇಟಾ";"ಮೆಟಾಡೇಟಾ";"Metadata is data that describes other data, providing a structured reference that helps to sort and identify attributes of the information it describes.";"ಮೆಟಾಡೇಟಾ ಬೇರೊಂದು ದತ್ತಾಂಶವನ್ನು ವಿವರಿಸುವ ದತ್ತಾಂಶವಾಗಿರುತ್ತದೆ. ಅದು ದತ್ತಾಂಶದ ರಚನಾ ಮಾದರಿಯನ್ನು ನೀಡುತ್ತದೆ, ಇದರಿಂದಾಗಿ ಅದು ವಿವರಿಸುವ ಮಾಹಿತಿಯ ಗುಣಲಕ್ಷಣಗಳನ್ನು ಗುರುತು ಹಿಡಿಯುವಲ್ಲಿ ಮತ್ತು ಅವುಗಳನ್ನು ವಿಂಗಡಿಸುವಲ್ಲಿ ಸಹಾಯಕವಾಗುತ್ತದೆ."
174;"Phishing";"ಫಿಶಿಂಗ್";"ಫಿಶಿಂಗ್";"Attempting to mimic an official email from a trusted organization to lure individuals into revealing sensitive information or other personal information.";"ನಂಬಿಕಸ್ಥ ಸಂಸ್ಥೆಯೊಂದರ ಅಧಿಕೃತ ಈಮೇಲನ್ನು ಅನುಕರಿಸಿ ವ್ಯಕ್ತಿಯೋರ್ವನನ್ನು ತನ್ನ ಸೂಕ್ಷ್ಮ ಅಥವಾ ವೈಯಕ್ತಿಕ ಮಾಹಿತಿಯನ್ನು ಹೊರಗೆಡಹುವಂತೆ ಆಮಿಷವೊಡ್ಡುವ ಪ್ರಯತ್ನ."
175;"Search Engine";"ಸರ್ಚ್ ಎಂಜಿನ್";"ಸರ್ಚ್ ಎಂಜಿನ್";"A website that finds information across the Internet based on a set of search criteria.";"ಕೆಲವೊಂದು ಶೋಧನಾ ಮಾನದಂಡಗಳ ಆಧಾರದ ಮೇಲೆ ಅಂತರ್ಜಾಲದಲ್ಲಿ ಮಾಹಿತಿಯನ್ನು ಹುಡುಕುವ ಜಾಲತಾಣ."
176;"Spam";"ಸ್ಪ್ಯಾಮ್";"ಸ್ಪ್ಯಾಮ್";"Unsolicited advertising or other information sent out via email or other messaging service.";"ಬೇಕಿಲ್ಲದ ಜಾಹಿರಾತು ಅಥವಾ ಬೇರೆ ಮಾಹಿತಿಯನ್ನು ಈಮೇಲ್ ಅಥವಾ ಬೇರೊಂದು ಸಂದೇಶ ಸಂವಹನ ಸೇವೆ ಬಳಸಿ ಕಳುಹಿಸುವುದು."
177;"ARP Spoofing Attack";"ಎಆರ್ಪಿ ಸ್ಫೂಫಿಂಗ್ ಅಟ್ಯಾಕ್";"ಎಆರ್ಪಿ ಸ್ಫೂಫಿಂಗ್ ಅಟ್ಯಾಕ್";"ARP spoofing is a type of attack in which a malicious actor sends falsified ARP (Address Resolution Protocol) messages over a local area network.";"ಎಆರ್ಪಿ ಸ್ಫೂಫಿಂಗ್ ಒಂದು ಬಗೆಯ ದಾಳಿ, ಈ ದಾಳಿಯಲ್ಲಿ ಓರ್ವ ದುಷ್ಟ ವ್ಯಕ್ತಿಯು ತಪ್ಪಾದ ಎಆರ್ಪಿ (ಅಡ್ರೆಸ್ ರೆಸಲೂಷನ್ ಪ್ರೊಟೊಕಾಲ್) ಸಂದೇಶಗಳನ್ನು ಸ್ಥಳೀಯ ಜಾಲಬಂಧದಲ್ಲಿ ರವಾನಿಸುತ್ತಾನೆ."
178;"ARP Cache Poisoning Attack";"ಎಆರ್ಪಿ ಕ್ಯಾಷ್ ಪಾಯಿಸನಿಂಗ್ ಅಟ್ಯಾಕ್";"ಎಆರ್ಪಿ ಕ್ಯಾಷ್ ಪಾಯಿಸನಿಂಗ್ ದಾಳಿ";"ARP Cache Poisoning is a type of attack in which a malicious actor sends falsified ARP (Address Resolution Protocol) messages over a local area network.";"ಎಆರ್ಪಿ ಕ್ಯಾಷ್ ಪಾಯಿಸನಿಂಗ್ ಒಂದು ಬಗೆಯ ದಾಳಿ, ಈ ದಾಳಿಯಲ್ಲಿ ಓರ್ವ ದುಷ್ಟ ವ್ಯಕ್ತಿಯು ತಪ್ಪಾದ ಎಆರ್ಪಿ (ಅಡ್ರೆಸ್ ರೆಸಲೂಷನ್ ಪ್ರೊಟೊಕಾಲ್) ಸಂದೇಶಗಳನ್ನು ಸ್ಥಳೀಯ ಜಾಲಬಂಧದಲ್ಲಿ ರವಾನಿಸುತ್ತಾನೆ."
179;"Botnet";"ಬಾಟ್ನೆಟ್";"ಬಾಟ್ನೆಟ್";"A malicious botnet is a network of compromised computers [zombies] that is used to transmit information, send spam, or launch denial-of-service (DoS) attacks.";"ಈ ಕೆಡುಕು ಬಾಟ್ನೆಟ್ ದುರ್ಬಲಗೊಳಿಸಲಾದ ಗಣಕಯಂತ್ರಗಳ (ದಡ್ಡ/ಝಾಂಬಿ) ಒಂದು ಜಾಲಬಂಧ, ಇವುಗಳನ್ನು ಮಾಹಿತಿ ರವಾನೆ, ಸ್ಪಾಮ್ ಹಂಚುವಿಕೆ ಅಥವಾ ಸೇವಾ ನಿರಾಕರಣೆ (ಡಿಒಎಸ್) ದಾಳಿ ಪ್ರಾರಂಭಿಸಲು ಬಳಸಲಾಗುತ್ತದೆ."
180;"DNS cache poisoning";"ಡಿಎನೆಸ್ ಕ್ಯಾಷ್ ಪಾಯಿಸನಿಂಗ್";"ಡಿಎನೆಸ್ ಕ್ಯಾಷ್ ಪಾಯಿಸನಿಂಗ್";"It is the corruption of an Internet server’s domain name system table by replacing an Internet address with that of another, possibly a rogue address. ";"ಒಂದು ಅಂತರ್ಜಾಲ ವಿಳಾಸವನ್ನು ಬೇರೊಂದು ವಿಳಾಸದೊಂದಿಗೆ (ಬಹುಷಃ ದುಷ್ಟ ವಿಳಾಸದೊಂದಿಗೆ) ಬದಲಿಸಿ ಅಂತರ್ಜಾಲ ಸರ್ವರಿನ ಡೊಮೈನ್ ನೇಮ್ ಸಿಸ್ಟಮ್ ಕೋಷ್ಟಕವನ್ನು ಹೊಲಸುಗೆಡಿಸುವ ಕ್ರಿಯೆ."
181;"Memory Injection ";"ಮೆಮೊರಿ ಇಂಜೆಕ್ಷನ್";"ಮೆಮೊರಿ ಇಂಜೆಕ್ಷನ್";"Code injected into the memory of a running process by an attacker, compromising the integrity of the system.";"ಕಾರ್ಯವೆಸಗುತ್ತಿರುವ ಪ್ರೊಸೆಸ್ಸಿನ ಮೆಮೊರಿಯೊಳಗೆ ದಾಳಿಕಾರನಿಂದ ಒಳ್ನುಗ್ಗಿಸಲಾದ ಸಂಕೇತ ಲಿಪಿ, ಇದರಿಂದ ವ್ಯವಸ್ಥೆಯ ಸಮಗ್ರತೆ ಹಾಳಾಗುತ್ತದೆ."
182;"Packet Sniffing";"ಪ್ಯಾಕೆಟ್ ಸ್ನಿಫ್ಫಿಂಗ್";"ಪ್ಯಾಕೆಟ್ ಸ್ನಿಫ್ಫಿಂಗ್";"Using a utility to capture data on the network to a buffer or a file for later review and filtering.";"ಜಾಲಬಂಧದಲ್ಲಿ ಹರಿಯುತ್ತಿರುವ ಮಾಹಿತಿಯನ್ನು ಉಪಯುಕ್ತ ತಂತ್ರಾಂಶ ಬಳಸಿಕೊಂಡು ಒಂದು ಕಡತ ಅಥವಾ ದತ್ತಕೋಶದೊಳಗೆ ಸರೆಹಿಡಿದು ತದನಂತರ ಪುನರ್ವಿಮರ್ಶೆ ಮತ್ತು ಪರಿಶೋಧನೆಗೆ ಒಳಪಡಿಸುವ ಕ್ರಿಯೆ."
183;"Watering Hole Attacks";"ವಾಟರಿಂಗ್ ಹೋಲ್ ಅಟ್ಯಾಕ್ಸ್";"ವಾಟರಿಂಗ್ ಹೋಲ್ ದಾಳಿಗಳು";"Consist of cyber spies using a particular website to infect every visitor of the website with a certain virus. From then on, the hackers use this virus to gain access into the compromised computers and access sensitive information ";"ಈ ದಾಳಿಯಲ್ಲಿ ಸೈಬರ್ ಬೇಹುಗಾರರು ಒಂದು ಪ್ರತ್ಯೇಕ ಜಾಲತಾಣವನ್ನು ಬಳಸಿಕೊಂಡು ಅದನ್ನು ವೀಕ್ಷಿಸುವ ಪ್ರತಿಯೊಬ್ಬ ಬಳಕೆದಾರನಿಗೂ ನಿರ್ಧಿಷ್ಟ ವೈರಸ್ಸಿನ ಸೋಂಕು ತಗಲುವಂತೆ ಮಾಡಲಾಗುತ್ತದೆ. ತದನಂತರ ಈ ವೈರಸನ್ನು ಬಳಸಿಕೊಂಡು ದಾಳಿಕೋರರು ಸೋಂಕಿತ ಗಣಕಯಂತ್ರಗಳ ಪ್ರವೇಶಗಳಿಸಿ ಅತಿಸೂಕ್ಷ್ಮವಾದ ಮಾಹಿತಿಯನ್ನು ತಿಳಿಯಬಹುದಾಗಿದೆ."
184;"Clickjacking";"ಕ್ಲಿಕ್ಜ್ಯಾಕಿಂಗ್";"ಕ್ಲಿಕ್ಜ್ಯಾಕಿಂಗ್";"A malicious technique by which a victim is tricked into clicking on a URL, button or other screen object other than that intended by or perceived by the user.";"ಬಳಕೆದಾರನನ್ನು ಕುಹಕದಿಂದ ಅವನ ಅರಿವಿಲ್ಲದೆಯೇ ಒಂದು ಯುಅರೆಲ್, ಒತ್ತುಗುಂಡಿ ಅಥವಾ ಇನ್ಯಾವುದಾದರೂ ಪರದೆಯ ಮೇಲಿನ ವಸ್ತುವನ್ನು ಕ್ಲಿಕ್ ಮಾಡುವಂತೆ ಮಾಡುವ ಒಂದು ಕೆಡುಕು ಕಾರ್ಯವಿಧಾನ."
185;"Ransomware";"ರ‍್ಯಾಂಸಂವೇರ್";"ರ‍್ಯಾಂಸಂವೇರ್";" A form of malware that holds a victim's data hostage on their computer typically through robust encryption. This is followed by a demand for payment in the form of Bitcoin (an untraceable digital currency) in order to release control of the captured data back to the user.";"ಬಲಿಪಶುವಾದವರ ದತ್ತಾಂಶವನ್ನು ಅವರದೇ ಗಣಕಯಂತ್ರದಲ್ಲಿ ಅತ್ಯಾಧುನಿಕ ಗೂಢಲಿಪೀಕರಣ ಬಳಸಿ ಒತ್ತೆಯಾಗಿರಿಸುವ ಒಂದು ರೀತಿಯ ಕೆಡುಕು ತಂತ್ರಾಂಶ. ಇದಾದ ನಂತರ ಒತ್ತೆ ಇರಿಸಿಕೊಂಡ ದತ್ತಾಂಶವನ್ನು ಬಳಕೆದಾರನಿಗೆ ಮತ್ತೆ ಬಿಡುಗಡೆ ಮಾಡಲು ಬಿಟ್ಕಾಯಿನ್ ರೂಪದ (ಒಂದು ಪತ್ತೆ ಹಚ್ಚಲಾಗದ ಹಣ) ಹಣ ಸಂದಾಯಕ್ಕಾಗಿ ಬೇಡಿಕೆ ಇಡಲಾಗುತ್ತದೆ."
186;"Exfiltration";"ಎಕ್ಸ್ಫಿಲ್ಟ್ರೇಶನ್";"ಎಕ್ಸ್ಫಿಲ್ಟ್ರೇಶನ್";"The unauthorized transfer of information from an information system.";"ಮಾಹಿತಿ ವ್ಯವಸ್ಥೆಯಿಂದ ಅನಧಿಕೃತವಾಗಿ ಮಾಹಿತಿ ರವಾನೆ ಮಾಡುವ ಕ್ರಿಯೆ."
187;"Piracy";"ಪೈರೆಸಿ";"ಕೃತಿಸ್ವಾಮ್ಯ ಉಲ್ಲಂಘನೆ";"the act of illegally copying software, music, or movies that are copyright-protected in their digital form.

";"ಕೃತಿಸ್ವಾಮ್ಯದ ಮೂಲಕ ರಕ್ಷಿಸಲಾದ ಡಿಜಿಟಲ್ ರೂಪದಲ್ಲಿರುವ ತಂತ್ರಾಂಶ, ಸಂಗೀತ ಅಥವಾ ಚಲನಚಿತ್ರಗಳನ್ನು ಅಕ್ರಮವಾಗಿ ನಕಲುಮಾಡುವ ಕ್ರಿಯೆ."
188;"Dumpster diving";"ಡಂಪ್ಸ್ಟರ್ ಡೈವಿಂಗ್";"ಕಸದ ರಾಶಿ ಹೆಕ್ಕುವುದು";"Dumpster Diving is the illegal method of obtaining passwords and corporate directories by searching through discarded media.";"ಬಿಸಡಲಾದ ಮಾಧ್ಯಮಗಳಿಂದ ಗುಪ್ತಪದ್ಗಳನ್ನು ಮತ್ತು ನಿಗಮ ಸಂಬಂಧಿ ಕೈಪಿಡಿಗಳನ್ನು ಹೆಕ್ಕಿ ತೆಗೆಯುವ ಅಕ್ರಮ ವಿಧಾನ."
189;"Cyber Law";"ಸೈಬರ್ ಲಾ";"ಸೈಬರ್ ಕಾನೂನು";"Cyber Law also called IT Law is the law regarding Information-technology including computers and internet. It is related to legal informatics and supervises the digital circulation of information, software, information security and e-commerce. ";"ಸೈಬರ್ ಕಾನೂನು ಅಥವಾ ಐಟಿ ಕಾನೂನು ಗಣಕ ಯಂತ್ರಗಳು ಮತ್ತು ಅಂತರ್ಜಾಲವನ್ನೂ ಒಳಗೊಂಡಂತೆ ಮಾಹಿತಿ ತಂತ್ರಜ್ಞಾನಕ್ಕೆ ಸಂಬಂಧಿಸಿದ ಕಾನೂನಾಗಿರುತ್ತದೆ. ಇದು ಕಾನೂನುಬದ್ಧ ಮಾಹಿತಿ ಶಾಸ್ತ್ರಕ್ಕೆ ಸಂಬಂಧಿಸಿದ್ದು, ಡಿಜಿಟಲ್ ಮಾಹಿತಿ ಮತ್ತು ತಂತ್ರಾಂಶ ಪ್ರಸರಣ, ಮಾಹಿತಿ ಭದ್ರತೆ ಮತ್ತು ಈ-ವ್ಯಾಪಾರಗಳ ಮೇಲ್ವಿಚಾರಣೆಗೆ ಸಂಬಂಧಿಸಿರುತ್ತದೆ."
190;"Digital Harassment";"ಡಿಜಿಟಲ್ ಹರಾಸ್ಮೆಂಟ್";"ಡಿಜಿಟಲ್ ಕಿರುಕುಳ";"Digital harassment is when persons use cell phones, social networks, and other communications devices to bully, threaten, and aggressively badger someone.";"ವಕ್ತಿಗಳು ಸೆಲ್ ಫೋನುಗಳನ್ನು, ಸಮಾಜಿಕ ಜಾಲತಾಣಗಳು ಮತ್ತು ಇತರೆ ಸಂವಹನ ಸಲಕರಣೆಗಳನ್ನು ಬಳಸಿಕೊಂಡು ಮತ್ತೊಬರಿಗೆ ದಬಾವಣೆ, ಬೆದರಿಕೆ ಅಥವಾ ಅಕ್ರಮಣಕಾರಿಯಾಗಿ ಪೀಡಿಸುವಿಕೆಯನ್ನು ಡಿಜಿಟಲ್ ಕಿರುಕುಳ ಎನ್ನುವರು."
191;"SQL Injection
";"ಎಸ್ಕ್ಯುಎಲ್ ಇಂಜೆಕ್ಷನ್";"ಎಸ್ಕ್ಯುಎಲ್ ಇಂಜೆಕ್ಷನ್";"A SQL injection attack consists of insertion of a SQL query via the input data from the client to the application. A successful SQL injection exploit can read sensitive data from the database, modify database data (Insert/Update/Delete), execute administration operations on the database (such as shutdown the DBMS) and in some cases issue commands to the operating system.";"ಎಸ್ಕ್ಯುಎಲ್ ಇಂಜೆಕ್ಷನ್ ದಾಳಿಯಲ್ಲಿ ಗ್ರಾಹಕನು ಅನ್ವಯಿಕ ತಂತ್ರಾಂಶದೊಳಗೆ ಇನ್ಪುಟ್ ದತ್ತಾಂಶದ ಮೂಲಕ ಒಂದು ಎಸ್ಕ್ಯುಎಲ್ ಪ್ರಶ್ನೆ ಅಥವಾ ಕ್ವೆರಿಯನ್ನು ಒಳಸೇರಿಸುತ್ತಾನೆ. ಇಂತಹ ಯಶಸ್ವಿ  ಎಸ್ಕ್ಯುಎಲ್ ಇಂಜೆಕ್ಷನ್ ದಾಳಿ ಬಳಸಿಕೊಂಡು ದತ್ತಸಂಚಯದಲ್ಲಿನ ಸೂಕ್ಷ್ಮ ಮಾಹಿತಿಯನ್ನು ಓದಬಹುದು, ಅಥವಾ ದತ್ತಸಂಚಯದಲ್ಲಿನ ಮಾಹಿತಿಯನ್ನು ಪರಿವರ್ತಿಸಬಹುದು (ಒಳಸೇರಿಸು/ಪರಿಷ್ಕರಿಸು/ಅಳಿಸು), ಅಥವಾ ಆಡಳಿತ ಸಂಬಂಧಿ ಕಾರ್ಯಾಚರಣೆಗಳನ್ನು ದತ್ತಸಂಚಯದ ಮೇಲೆ ಮಾಡಬಹುದು (ಉದಾಹರಣೆಗೆ ಡಿಬಿಎಂಎಸ್ ನಿಲುಗಡೆ) ಮತ್ತು ಕೆಲವೊಂದು ಬಾರಿ ಆಪರೇಟಿಂಗ್ ಸಿಸ್ಟಮಿಗೆ ಆಜ್ಞೆಗಳನ್ನು ನೀಡಬಹುದಾಗಿದೆ."
192;"Cross Site Scripting (XSS)";"ಕ್ರಾಸ್ ಸೈಟ್ ಸ್ಕ್ರಿಪ್ಟಿಂಗ್ (ಎಕ್ಸ್ ಎಸ್ ಎಸ್)";"ಕ್ರಾಸ್ ಸೈಟ್ ಸ್ಕ್ರಿಪ್ಟಿಂಗ್ (ಎಕ್ಸ್ ಎಸ್ ಎಸ್)";"Cross-Site Scripting (XSS) attacks are a type of injection, in which malicious scripts are injected into otherwise benign and trusted websites.";"ಕ್ರಾಸ್ ಸೈಟ್ ಸ್ಕ್ರಿಪ್ಟಿಂಗ್ (XSS) ಒಂದು ಬಗೆಯ ಒಳಸೇರುಸುವಿಕೆ ದಾಳಿಯಾಗಿದ್ದು, ಇದರಲ್ಲಿ ದುರುದ್ದೇಶಪೂರಿತ ಸ್ಕ್ರಿಪ್ಟುಗಳನ್ನು ಒಳ್ಳೆಯ ಮತ್ತು ನಂಬಿಕಸ್ಥ ಜಾಲತಾಣಗಳ ಒಳಗೆ ಸೇರಿಸಲಾಗುತದೆ "
193;"Memory leak
";"ಮೆಮೊರಿ ಲೀಕ್";"ಮೆಮೊರಿ ಸೋರಿಕೆ";"A memory leak is an unintentional form of memory consumption whereby the developer fails to free an allocated block of memory when no longer needed. ";"ಮೆಮೊರಿ ಸೋರಿಕೆ ಒಂದು ಉದ್ದೇಶಪೂರ್ವಕವಲ್ಲದ ಮೆಮೊರಿ ಬಳಕೆ ಯಾವುದರಲ್ಲಿ ಡೆವಲಪರ್ ಗೊತ್ತುಪಡಿಸಿದ ಮೆಮೊರಿ ಘಟಕವನ್ನು ಅದರ ಬಳಕೆ ಮುಗಿದ ನಂತರ ಅದನ್ನು ಬಿಡುಗಡೆ ಮಾಡಲು ವಿಫಲವಾಗುತ್ತಾನೆ."
194;"HTTPS";"ಎಚ್ಟಿಟಿಪಿಎಸ್";"ಎಚ್ಟಿಟಿಪಿಎಸ್";"Hyper Text Transfer Protocol Over SSL. A secure form of HTTP, used commonly for Internet business transactions or any time where a secure connection is required.";"ಎಸೆಸೆಲ್ ಅಧಾರಿತ ಎಚ್ಟಿಟಿಪಿ. ಎಚ್ಟಿಟಿಪಿಯ ಸುಭದ್ರ ಪ್ರಕಾರ, ಇದನ್ನು ಸಾಮಾನ್ಯವಾಗಿ ಅಂತರ್ಜಾಲ ವ್ಯಾಪಾರ ವಹಿವಾಟುಗಳಿಗೆ ಅಥವಾ ಯಾವಾಗಲಾದರೂ ಸುಭದ್ರ ಸಂಪರ್ಕ ಬೇಕಾದಾಗ ಬಳಸಲಾಗುತ್ತದೆ."
195;"Router Log";"ರೂಟರ್ ಲಾಗ್";"ರೂಟರ್ ದಾಖಲೆ";"A log of the activities occurring in a router. ";"ರೂಟರಿನಲ್ಲಿ ನೆಡೆಯುವ ಎಲ್ಲ ಚಟುವಟಿಕೆಗಳ ದಾಖಲೆ."
196;"Wireshark";"ವೈರ್ ಶಾರ್ಕ್";"ವೈರ್ ಶಾರ್ಕ್";"Wireshark is a network utility that allows you to browse packets from both live networks and capture files. Network administrators use Wireshark to monitor and troubleshoot networks and to watch out for intrusion attempts. It is also a great tool to help one learn about the different network protocols ";"ವೈರ್ ಶಾರ್ಕ್ ಒಂದು ಜಾಲಬಂಧ ಉಪಯುಕ್ತ ತಂತ್ರಾಂಶ, ಅದನ್ನು ಬಳಸಿಕೊಂಡು ನೇರ ಜಾಲಬಂಧದ ಅಥವಾ ಸೆರೆಕಡತದೊಳಗಿನ ಪ್ಯಾಕೆಟ್ಟುಗಳನ್ನು (ಪೊಟ್ಟಣಗಳನ್ನು) ವೀಕ್ಷಿಸಬಹುದಾಗಿದೆ. ಜಾಲಬಂಧ ಕಾರ್ಯನಿರ್ವಾಹಕರು ಜಾಲಬಂಧಗಳ ಮೇಲೆ ನಿಗಾ ವಹಿಸಲು, ತೊಡಕುಗಳನ್ನು ಸರಿಪಡಿಸು ಮತ್ತು ಅತಿಕ್ರಮ ಪ್ರವೇಶವನ್ನು ತಿಳಿಯಲು ವೈರ್ ಶಾರ್ಕನ್ನು ಬಳಸುತ್ತಾರೆ. ಅಷ್ಟೇ ಅಲ್ಲ ಜಾಲಬಂಧ ನಿಯಾಮಾವಳಿಗಳನ್ನು ಯಾರಾದರೂ ಅಭ್ಯಸಿಸಲು ಹಾಗು ಕಲಿಯಲು ವೈರ್ ಶಾರ್ಕ್ ಒಂದು ಉತ್ತಮ ಸಾಧನ."
197;"Cyber Squatting";"ಸೈಬರ್ ಸ್ಕ್ವಾಟಿಂಗ್";"ಸೈಬರ್ ಸ್ಕ್ವಾಟಿಂಗ್";"These people registers domain name identical to popular service provider’s domain so as to attract their users and get benefit from it.";"ಈ ಜನರು ಪ್ರಖ್ಯಾತ ಸೇವಾಸಂಸ್ಥೆಗಳ ಡೊಮೈನ್ ಹೆಸರುಗಳನ್ನೇ ಹೋಲುವ ಡೊಮೈನ್ ಹೆಸರುಗಳನ್ನು ನೋಂದಾಯಿಸಿಕೊಂಡು ಪ್ರಖ್ಯಾತ ಸೇವಾಸಂಸ್ಥೆಗಳ ಬಳಕೆದಾರರನ್ನು ಆಕರ್ಷಿಸಿಕೊಂಡು,ಅದರಿಂದ ಲಾಭ ಪಡೆಯಲು ಯತ್ನಿಸುತ್ತಾರೆ."
198;"IPR Violation";"ಐಪಿಆರ್ ವಾಯೋಲೇಷನ್";"ಐಪಿಆರ್ ಉಲ್ಲಂಘನೆ";"These include software piracy, copyright infringement, trademarks violations, theft of computer source code, patent violations. Etc.";"ಇವುಗಳಲ್ಲಿ ತಂತ್ರಾಂಶ ಪೈರಸಿ, ಕೃತಿಸ್ವಾಮ್ಯ ಉಲ್ಲಂಘನೆ, ವ್ಯಾಪಾರಲಾಂಛನ ಉಲ್ಲಂಘನೆ, ಗಣಕ ಮೂಲ ಸಂಕೇತಗಳ ಕಳವು, ಪೇಟಂಟ್ ಉಲ್ಲಂಘನೆ ಇತ್ಯಾದಿ ಸೇರಿರುತ್ತವೆ."
199;"IP address spoofing";"ಐಪಿ ಅಡ್ರೆಸ್ ಸ್ಫೂಫಿಂಗ್";"ಐಪಿ ಅಡ್ರೆಸ್ ಸ್ಫೂಫಿಂಗ್";"The intruder transmits packets from the outside with a
source IP address field containing an address of an internal host hoping that he will gain entry into the network.";"ಜಾಲಬಂಧದೊಳಗೆ ಪ್ರವೇಶ ಪಡೆಯುವ ಉದ್ದೇಶದಿಂದ ಇಲ್ಲಿ ದಾಳಿಕೋರನು ಹೊರಗಿನಿಂದ ಪ್ಯಾಕೆಟ್ಟುಗಳನ್ನು (ಪೊಟ್ಟಣಗಳನ್ನು) ರವಾನೆ ಮಾಡುತ್ತಾನೆ, ಹಾಗೆ ಮಾಡುವಾಗ ಆ ಪೊಟ್ಟಣಗಳ ಮೂಲ ಐಪಿ ವಿಳಾಸದಲ್ಲಿ ಓರ್ವ ಆಂತರಿಕ ಗಣಕದ ವಿಳಾಸವನ್ನು ಹಾಕಿರುತ್ತಾನೆ."
200;"Intellectual property";"ಇಂಟಲೆಕ್ಚೂಯಲ್ ಪ್ರಾಪರ್ಟಿ";"ಬೌದ್ಧಿಕ ಆಸ್ಥಿ";"Any intangible asset that consists of human knowledge
and ideas. Examples include software, data, novels, sound recordings etc.";"ಮಾನವ ಜ್ಞಾನ ಅಥವಾ ಆಲೋಚನೆಗಳನ್ನು ಒಳಗೊಂಡಿರುವ ಯಾವುದೇ ಸ್ಪರ್ಶಾತೀತ ಆಸ್ಥಿ . ಉದಾಹರಣೆಗೆ ತಂತ್ರಾಂಶ, ಮಾಹಿತಿ, ಕಾದಂಬರಿಗಳು, ಧ್ವನಿಮುದ್ರಣಗಳು ಇತ್ಯಾದಿ. "
201;"Digital Millennium Copyright Act (DMCA)";"ಡಿಜಿಟಲ್ ಮಿಲೇನಿಯಮ್ ಕಾಪಿರೈಟ್ ಆಕ್ಟ್ (ಡಿಎಮ್ಸಿಎ)";"ಡಿಜಿಟಲ್ ಮಿಲೇನಿಯಮ್ ಕಾಪಿರೈಟ್ ಆಕ್ಟ್ (ಡಿಎಮ್ಸಿಎ)";"DMCA, signed into law in 1998, is designed to implement World Intellectual Property Organization (WIPO) treaties, signed in 1996. DMCA strengthens the protection of copyrighted materials in digital format.";"ಡಿಎಮ್ಸಿಎ, ೧೯೯೮ರಲ್ಲಿ ಕಾನೂನಾಗಿ ಅಂಗೀಕಾರವಗಿದ್ದು, ವಿಶ್ವ ಬೌದ್ಧಿಕ ಆಸ್ಥಿ ಸಂಸ್ಥೆಯ (ಡಬ್ಲ್ಯುಐಪಿಒ) ೧೯೯೬ರಲ್ಲಿ ಸಹಿಯಾದಒಪ್ಪಂದಗಳನ್ನು ಕಾರ್ಯರೂಪಕ್ಕೆ ತರಲು ರಚಿಸಲಾಗಿದೆ. ಡಿಜಿಟಲ್ ರೂಪದಲ್ಲಿರುವ ಕೃತಿಸ್ವಾಮ್ಯಕೊಳಪಟ್ಟ ವಸ್ತುಗಳ ರಕ್ಷಣೆಯನ್ನು ಡಿಎಮ್ಸಿಎ ಬಲಗೊಳಿಸುತ್ತದೆ."
